{
    "action_list": [
        {
            "cmd": {
                "type": "motion/joint_trajectory", 
                "command": "head_shake"
            }, 
            "seq_delay": 0.0, 
            "seq_num": 0
        }, 
        {
            "cmd": {
                "type": "voice/play_wav", 
                "command": "do_not_touch_me"
            }, 
            "seq_delay": 0.0, 
            "seq_num": 0
        }
    ]
}