{
    "trajectory": {
        "header": {
            "seq": 0,
            "stamp": {
                "secs": 1651259860,
                "nsecs": 478658647
            },
            "frame_id": ""
        },
        "joint_names": [
            "eyes_pitch",
            "eyes_yaw",
            "head_joint1",
            "head_joint2",
            "head_joint3",
            "head_joint4",
            "leg1_joint1",
            "leg1_joint2",
            "leg1_joint3",
            "leg1_joint4",
            "leg1_joint5",
            "leg1_joint6",
            "leg1_joint7",
            "leg2_joint1",
            "leg2_joint2",
            "leg2_joint3",
            "leg2_joint4",
            "leg2_joint5",
            "leg2_joint6",
            "leg2_joint7",
            "leg3_joint1",
            "leg3_joint2",
            "leg3_joint3",
            "leg3_joint4",
            "leg3_joint5",
            "leg3_joint6",
            "leg3_joint7",
            "leg4_joint1",
            "leg4_joint2",
            "leg4_joint3",
            "leg4_joint4",
            "leg4_joint5",
            "leg4_joint6",
            "leg4_joint7",
            "support/leg1",
            "support/leg2",
            "support/leg3",
            "support/leg4"
        ],
        "points": [
            {
                "positions": [
                    0.0,
                    0.0,
                    0.0,
                    0.0,
                    0.0,
                    0.0,
                    -0.00015202127104862326,
                    -0.00025999983103350526,
                    -1.5774012892145656e-05,
                    -1.7242683171377806e-10,
                    -5.8518772939653984e-05,
                    6.984954223128499e-09,
                    -1.199336934842194e-07,
                    -0.00039599992400103857,
                    -0.0002600002578699855,
                    -1.5362363006376216e-05,
                    -3.153696665453281e-10,
                    -9.999978742308738e-05,
                    -1.0186666173126025e-08,
                    2.146961525878427e-11,
                    -0.0006439995142947569,
                    -6.399289855944074e-05,
                    -0.00020907245025169634,
                    -0.00013795271741626767,
                    -0.0001540092285353145,
                    -6.799666068978575e-05,
                    -7.389712134049478e-09,
                    -0.00016229649505666174,
                    -2.04932945915646e-05,
                    -0.00020900000209755633,
                    -6.905743548210475e-05,
                    -0.0001539999590535893,
                    -6.589958395613836e-05,
                    -1.2967648787441243e-06,
                    1.0,
                    1.0,
                    1.0,
                    1.0
                ],
                "velocities": [],
                "accelerations": [],
                "effort": [],
                "time_from_start": {
                    "secs": 0,
                    "nsecs": 0
                }
            },
            {
                "positions": [
                    0.6041296799999989,
                    0.25886783999999946,
                    0.023689497490649886,
                    0.5666892095033992,
                    -0.18737854849471927,
                    0.4079881659475192,
                    -0.4822009999999983,
                    -0.10789999999999973,
                    1.6891579999999977,
                    -1.6166149999999906,
                    0.499099999999999,
                    5.283915878418807e-16,
                    -0.00031415999999990715,
                    -0.306745999999998,
                    -0.13623999999999897,
                    1.604767999999998,
                    -1.5829659999999934,
                    0.4990999999999992,
                    -0.023798000000000076,
                    8.672457563534432e-17,
                    0.44240800000000025,
                    -0.13614399999999938,
                    -0.9871069999999956,
                    0.8843819999999982,
                    -0.1649479999999972,
                    0.10205199999999981,
                    -0.0006283200000002562,
                    0.4468719999999991,
                    0.011312000000000093,
                    -0.9189729999999963,
                    0.8386979999999987,
                    -0.20128799999999852,
                    -0.09656400000000001,
                    -0.0003141599999988393,
                    1.0,
                    1.0,
                    1.0,
                    1.0
                ],
                "velocities": [],
                "accelerations": [],
                "effort": [],
                "time_from_start": {
                    "secs": 1,
                    "nsecs": 0
                }
            },
            {
                "positions": [
                    1.5707999999999975,
                    0.6386872799999997,
                    0.03421816304204993,
                    0.9359328113819574,
                    -0.1758419221384284,
                    0.5842489671051013,
                    -0.4822009999999987,
                    -0.10789999999999973,
                    1.689351999999995,
                    -1.6166149999999921,
                    0.49924999999999786,
                    5.283915878418807e-16,
                    -0.00031415999999990715,
                    -0.306745999999998,
                    -0.1362399999999992,
                    1.6049619999999953,
                    -1.5829659999999934,
                    0.49924999999999825,
                    -0.023652000000000208,
                    8.672457563534424e-17,
                    0.44240800000000025,
                    -0.13614399999999938,
                    -0.9871069999999956,
                    0.8846249999999964,
                    -0.1649479999999972,
                    0.10190399999999986,
                    -0.0006283200000002556,
                    0.4474299999999992,
                    0.011312000000000093,
                    -0.918972999999997,
                    0.838940999999997,
                    -0.20128799999999852,
                    -0.09656400000000001,
                    -0.00031415999999883965,
                    1.0,
                    1.0,
                    1.0,
                    1.0
                ],
                "velocities": [],
                "accelerations": [],
                "effort": [],
                "time_from_start": {
                    "secs": 2,
                    "nsecs": 0
                }
            },
            {
                "positions": [
                    1.5707999999999975,
                    0.6386872799999997,
                    0.03421816304204993,
                    0.9359328113819574,
                    -0.1758419221384284,
                    0.5842489671051013,
                    -0.4822009999999987,
                    -0.10789999999999973,
                    1.689351999999995,
                    -1.6166149999999921,
                    0.49924999999999786,
                    5.283915878418807e-16,
                    -0.00031415999999990715,
                    -0.306745999999998,
                    -0.1362399999999992,
                    1.6049619999999953,
                    -1.5829659999999934,
                    0.49924999999999825,
                    -0.023652000000000208,
                    8.672457563534424e-17,
                    0.44240800000000025,
                    -0.13614399999999938,
                    -0.9871069999999956,
                    0.8846249999999964,
                    -0.1649479999999972,
                    0.10190399999999986,
                    -0.0006283200000002556,
                    0.4474299999999992,
                    0.011312000000000093,
                    -0.918972999999997,
                    0.838940999999997,
                    -0.20128799999999852,
                    -0.09656400000000001,
                    -0.00031415999999883965,
                    1.0,
                    1.0,
                    1.0,
                    1.0
                ],
                "velocities": [],
                "accelerations": [],
                "effort": [],
                "time_from_start": {
                    "secs": 3,
                    "nsecs": 0
                }
            },
            {
                "positions": [
                    0.6041296799999989,
                    0.25886783999999946,
                    0.023689497490649886,
                    0.5666892095033992,
                    -0.18737854849471927,
                    0.4079881659475192,
                    -0.4822009999999983,
                    -0.10789999999999973,
                    1.6891579999999977,
                    -1.6166149999999906,
                    0.499099999999999,
                    5.283915878418807e-16,
                    -0.00031415999999990715,
                    -0.306745999999998,
                    -0.13623999999999897,
                    1.604767999999998,
                    -1.5829659999999934,
                    0.4990999999999992,
                    -0.023798000000000076,
                    8.672457563534432e-17,
                    0.44240800000000025,
                    -0.13614399999999938,
                    -0.9871069999999956,
                    0.8843819999999982,
                    -0.1649479999999972,
                    0.10205199999999981,
                    -0.0006283200000002562,
                    0.4468719999999991,
                    0.011312000000000093,
                    -0.9189729999999963,
                    0.8386979999999987,
                    -0.20128799999999852,
                    -0.09656400000000001,
                    -0.0003141599999988393,
                    1.0,
                    1.0,
                    1.0,
                    1.0
                ],
                "velocities": [],
                "accelerations": [],
                "effort": [],
                "time_from_start": {
                    "secs": 4,
                    "nsecs": 0
                }
            },
            {
                "positions": [
                    0.0,
                    0.0,
                    0.0,
                    0.0,
                    0.0,
                    0.0,
                    -0.00015202127104862326,
                    -0.00025999983103350526,
                    -1.5774012892145656e-05,
                    -1.7242683171377806e-10,
                    -5.8518772939653984e-05,
                    6.984954223128499e-09,
                    -1.199336934842194e-07,
                    -0.00039599992400103857,
                    -0.0002600002578699855,
                    -1.5362363006376216e-05,
                    -3.153696665453281e-10,
                    -9.999978742308738e-05,
                    -1.0186666173126025e-08,
                    2.146961525878427e-11,
                    -0.0006439995142947569,
                    -6.399289855944074e-05,
                    -0.00020907245025169634,
                    -0.00013795271741626767,
                    -0.0001540092285353145,
                    -6.799666068978575e-05,
                    -7.389712134049478e-09,
                    -0.00016229649505666174,
                    -2.04932945915646e-05,
                    -0.00020900000209755633,
                    -6.905743548210475e-05,
                    -0.0001539999590535893,
                    -6.589958395613836e-05,
                    -1.2967648787441243e-06,
                    1.0,
                    1.0,
                    1.0,
                    1.0
                ],
                "velocities": [],
                "accelerations": [],
                "effort": [],
                "time_from_start": {
                    "secs": 5,
                    "nsecs": 0
                }
            },
            {
                "positions": [
                    -0.00031416007946887144,
                    -0.0003141600308281948,
                    -0.00020594935009555457,
                    -0.0004712437016074477,
                    -0.0002792526848563854,
                    -0.00020943951923828685,
                    -0.000953004100283473,
                    -0.0005200000000028596,
                    -1.0297829189433722e-09,
                    -0.00041800351243118414,
                    -0.0002500006971464972,
                    6.98495422312848e-09,
                    -1.1993369348446342e-07,
                    -0.0009530000000012574,
                    -0.0013000043695311496,
                    -1.036700224570605e-09,
                    -0.0004180035124287819,
                    -0.00025000000002048275,
                    -0.00029200245350736174,
                    2.1469615258784203e-11,
                    0.2609296891788943,
                    -1.8958149285201289e-07,
                    -0.2382381066829039,
                    -0.18718961046922195,
                    0.12068836385657318,
                    0.005672416540219359,
                    -0.0006283252796190231,
                    0.2042056224455326,
                    0.011344735810847233,
                    -0.323324242317505,
                    0.0056723212295270425,
                    0.05632119277407844,
                    -0.0226893744968998,
                    -1.296764878744558e-06,
                    1.0,
                    1.0,
                    1.0,
                    1.0
                ],
                "velocities": [],
                "accelerations": [],
                "effort": [],
                "time_from_start": {
                    "secs": 5,
                    "nsecs": 500000000
                }
            },
            {
                "positions": [
                    0.0,
                    0.0,
                    0.0,
                    0.0,
                    0.0,
                    0.0,
                    -0.00015202127104862326,
                    -0.00025999983103350526,
                    -1.5774012892145656e-05,
                    -1.7242683171377806e-10,
                    -5.8518772939653984e-05,
                    6.984954223128499e-09,
                    -1.199336934842194e-07,
                    -0.00039599992400103857,
                    -0.0002600002578699855,
                    -1.5362363006376216e-05,
                    -3.153696665453281e-10,
                    -9.999978742308738e-05,
                    -1.0186666173126025e-08,
                    2.146961525878427e-11,
                    -0.0006439995142947569,
                    -6.399289855944074e-05,
                    -0.00020907245025169634,
                    -0.00013795271741626767,
                    -0.0001540092285353145,
                    -6.799666068978575e-05,
                    -7.389712134049478e-09,
                    -0.00016229649505666174,
                    -2.04932945915646e-05,
                    -0.00020900000209755633,
                    -6.905743548210475e-05,
                    -0.0001539999590535893,
                    -6.589958395613836e-05,
                    -1.2967648787441243e-06,
                    1.0,
                    1.0,
                    1.0,
                    1.0
                ],
                "velocities": [],
                "accelerations": [],
                "effort": [],
                "time_from_start": {
                    "secs": 6,
                    "nsecs": 0
                }
            }
        ]
    },
    "path_tolerance": [
        {
            "name": "eyes_pitch",
            "position": 0.522,
            "velocity": 0.0,
            "acceleration": 0.0
        },
        {
            "name": "eyes_yaw",
            "position": 0.522,
            "velocity": 0.0,
            "acceleration": 0.0
        },
        {
            "name": "head_joint1",
            "position": 0.522,
            "velocity": 0.0,
            "acceleration": 0.0
        },
        {
            "name": "head_joint2",
            "position": 0.522,
            "velocity": 0.0,
            "acceleration": 0.0
        },
        {
            "name": "head_joint3",
            "position": 0.522,
            "velocity": 0.0,
            "acceleration": 0.0
        },
        {
            "name": "head_joint4",
            "position": 0.522,
            "velocity": 0.0,
            "acceleration": 0.0
        },
        {
            "name": "leg1_joint1",
            "position": 0.522,
            "velocity": 0.0,
            "acceleration": 0.0
        },
        {
            "name": "leg1_joint2",
            "position": 0.522,
            "velocity": 0.0,
            "acceleration": 0.0
        },
        {
            "name": "leg1_joint3",
            "position": 0.522,
            "velocity": 0.0,
            "acceleration": 0.0
        },
        {
            "name": "leg1_joint4",
            "position": 0.522,
            "velocity": 0.0,
            "acceleration": 0.0
        },
        {
            "name": "leg1_joint5",
            "position": 0.522,
            "velocity": 0.0,
            "acceleration": 0.0
        },
        {
            "name": "leg1_joint6",
            "position": 0.522,
            "velocity": 0.0,
            "acceleration": 0.0
        },
        {
            "name": "leg1_joint7",
            "position": 0.522,
            "velocity": 0.0,
            "acceleration": 0.0
        },
        {
            "name": "leg2_joint1",
            "position": 0.522,
            "velocity": 0.0,
            "acceleration": 0.0
        },
        {
            "name": "leg2_joint2",
            "position": 0.522,
            "velocity": 0.0,
            "acceleration": 0.0
        },
        {
            "name": "leg2_joint3",
            "position": 0.522,
            "velocity": 0.0,
            "acceleration": 0.0
        },
        {
            "name": "leg2_joint4",
            "position": 0.522,
            "velocity": 0.0,
            "acceleration": 0.0
        },
        {
            "name": "leg2_joint5",
            "position": 0.522,
            "velocity": 0.0,
            "acceleration": 0.0
        },
        {
            "name": "leg2_joint6",
            "position": 0.522,
            "velocity": 0.0,
            "acceleration": 0.0
        },
        {
            "name": "leg2_joint7",
            "position": 0.522,
            "velocity": 0.0,
            "acceleration": 0.0
        },
        {
            "name": "leg3_joint1",
            "position": 0.522,
            "velocity": 0.0,
            "acceleration": 0.0
        },
        {
            "name": "leg3_joint2",
            "position": 0.522,
            "velocity": 0.0,
            "acceleration": 0.0
        },
        {
            "name": "leg3_joint3",
            "position": 0.522,
            "velocity": 0.0,
            "acceleration": 0.0
        },
        {
            "name": "leg3_joint4",
            "position": 0.522,
            "velocity": 0.0,
            "acceleration": 0.0
        },
        {
            "name": "leg3_joint5",
            "position": 0.522,
            "velocity": 0.0,
            "acceleration": 0.0
        },
        {
            "name": "leg3_joint6",
            "position": 0.522,
            "velocity": 0.0,
            "acceleration": 0.0
        },
        {
            "name": "leg3_joint7",
            "position": 0.522,
            "velocity": 0.0,
            "acceleration": 0.0
        },
        {
            "name": "leg4_joint1",
            "position": 0.522,
            "velocity": 0.0,
            "acceleration": 0.0
        },
        {
            "name": "leg4_joint2",
            "position": 0.522,
            "velocity": 0.0,
            "acceleration": 0.0
        },
        {
            "name": "leg4_joint3",
            "position": 0.522,
            "velocity": 0.0,
            "acceleration": 0.0
        },
        {
            "name": "leg4_joint4",
            "position": 0.522,
            "velocity": 0.0,
            "acceleration": 0.0
        },
        {
            "name": "leg4_joint5",
            "position": 0.522,
            "velocity": 0.0,
            "acceleration": 0.0
        },
        {
            "name": "leg4_joint6",
            "position": 0.522,
            "velocity": 0.0,
            "acceleration": 0.0
        },
        {
            "name": "leg4_joint7",
            "position": 0.522,
            "velocity": 0.0,
            "acceleration": 0.0
        }
    ],
    "goal_tolerance": [
        {
            "name": "eyes_pitch",
            "position": 0.174,
            "velocity": 0.0,
            "acceleration": 0.0
        },
        {
            "name": "eyes_yaw",
            "position": 0.174,
            "velocity": 0.0,
            "acceleration": 0.0
        },
        {
            "name": "head_joint1",
            "position": 0.174,
            "velocity": 0.0,
            "acceleration": 0.0
        },
        {
            "name": "head_joint2",
            "position": 0.174,
            "velocity": 0.0,
            "acceleration": 0.0
        },
        {
            "name": "head_joint3",
            "position": 0.174,
            "velocity": 0.0,
            "acceleration": 0.0
        },
        {
            "name": "head_joint4",
            "position": 0.174,
            "velocity": 0.0,
            "acceleration": 0.0
        },
        {
            "name": "leg1_joint1",
            "position": 0.174,
            "velocity": 0.0,
            "acceleration": 0.0
        },
        {
            "name": "leg1_joint2",
            "position": 0.174,
            "velocity": 0.0,
            "acceleration": 0.0
        },
        {
            "name": "leg1_joint3",
            "position": 0.174,
            "velocity": 0.0,
            "acceleration": 0.0
        },
        {
            "name": "leg1_joint4",
            "position": 0.174,
            "velocity": 0.0,
            "acceleration": 0.0
        },
        {
            "name": "leg1_joint5",
            "position": 0.174,
            "velocity": 0.0,
            "acceleration": 0.0
        },
        {
            "name": "leg1_joint6",
            "position": 0.174,
            "velocity": 0.0,
            "acceleration": 0.0
        },
        {
            "name": "leg1_joint7",
            "position": 0.174,
            "velocity": 0.0,
            "acceleration": 0.0
        },
        {
            "name": "leg2_joint1",
            "position": 0.174,
            "velocity": 0.0,
            "acceleration": 0.0
        },
        {
            "name": "leg2_joint2",
            "position": 0.174,
            "velocity": 0.0,
            "acceleration": 0.0
        },
        {
            "name": "leg2_joint3",
            "position": 0.174,
            "velocity": 0.0,
            "acceleration": 0.0
        },
        {
            "name": "leg2_joint4",
            "position": 0.174,
            "velocity": 0.0,
            "acceleration": 0.0
        },
        {
            "name": "leg2_joint5",
            "position": 0.174,
            "velocity": 0.0,
            "acceleration": 0.0
        },
        {
            "name": "leg2_joint6",
            "position": 0.174,
            "velocity": 0.0,
            "acceleration": 0.0
        },
        {
            "name": "leg2_joint7",
            "position": 0.174,
            "velocity": 0.0,
            "acceleration": 0.0
        },
        {
            "name": "leg3_joint1",
            "position": 0.174,
            "velocity": 0.0,
            "acceleration": 0.0
        },
        {
            "name": "leg3_joint2",
            "position": 0.174,
            "velocity": 0.0,
            "acceleration": 0.0
        },
        {
            "name": "leg3_joint3",
            "position": 0.174,
            "velocity": 0.0,
            "acceleration": 0.0
        },
        {
            "name": "leg3_joint4",
            "position": 0.174,
            "velocity": 0.0,
            "acceleration": 0.0
        },
        {
            "name": "leg3_joint5",
            "position": 0.174,
            "velocity": 0.0,
            "acceleration": 0.0
        },
        {
            "name": "leg3_joint6",
            "position": 0.174,
            "velocity": 0.0,
            "acceleration": 0.0
        },
        {
            "name": "leg3_joint7",
            "position": 0.174,
            "velocity": 0.0,
            "acceleration": 0.0
        },
        {
            "name": "leg4_joint1",
            "position": 0.174,
            "velocity": 0.0,
            "acceleration": 0.0
        },
        {
            "name": "leg4_joint2",
            "position": 0.174,
            "velocity": 0.0,
            "acceleration": 0.0
        },
        {
            "name": "leg4_joint3",
            "position": 0.174,
            "velocity": 0.0,
            "acceleration": 0.0
        },
        {
            "name": "leg4_joint4",
            "position": 0.174,
            "velocity": 0.0,
            "acceleration": 0.0
        },
        {
            "name": "leg4_joint5",
            "position": 0.174,
            "velocity": 0.0,
            "acceleration": 0.0
        },
        {
            "name": "leg4_joint6",
            "position": 0.174,
            "velocity": 0.0,
            "acceleration": 0.0
        },
        {
            "name": "leg4_joint7",
            "position": 0.174,
            "velocity": 0.0,
            "acceleration": 0.0
        }
    ],
    "goal_time_tolerance": {
        "secs": 0,
        "nsecs": 0
    }
}