{
    "trajectory": {
        "header": {
            "seq": 0,
            "stamp": {
                "secs": 1650792873,
                "nsecs": 359063011
            },
            "frame_id": ""
        },
        "joint_names": [
            "leg1_joint1",
            "leg1_joint2",
            "leg1_joint3",
            "leg1_joint4",
            "leg1_joint5",
            "leg1_joint6",
            "leg1_joint7",
            "leg2_joint1",
            "leg2_joint2",
            "leg2_joint3",
            "leg2_joint4",
            "leg2_joint5",
            "leg2_joint6",
            "leg2_joint7",
            "leg3_joint1",
            "leg3_joint2",
            "leg3_joint3",
            "leg3_joint4",
            "leg3_joint5",
            "leg3_joint6",
            "leg3_joint7",
            "leg4_joint1",
            "leg4_joint2",
            "leg4_joint3",
            "leg4_joint4",
            "leg4_joint5",
            "leg4_joint6",
            "leg4_joint7",
            "support/leg1",
            "support/leg2",
            "support/leg3",
            "support/leg4"
        ],
        "points": [
            {
                "positions": [
                    -0.00015202110202112125,
                    -0.00013108478063677441,
                    -1.5774013970783083e-05,
                    1.3691425090024622e-05,
                    -5.8518934209226665e-05,
                    7.184616900178618e-09,
                    -1.1995518315415512e-07,
                    -0.0003934596063166157,
                    -0.00012872749058941512,
                    -1.5362377322047067e-05,
                    1.418736247798167e-05,
                    -5.887317480911804e-05,
                    -1.0366362887754463e-08,
                    1.7333843057690055e-07,
                    -0.0004058413159086881,
                    -2.1392702096357185e-05,
                    -2.081375251107204e-05,
                    -6.909425825222595e-05,
                    -0.0001208095503727445,
                    -6.478506018163861e-05,
                    1.2926832995387172e-06,
                    -0.00016229634765524864,
                    -2.0493170178294954e-05,
                    -2.081913945370392e-05,
                    -6.905744738371365e-05,
                    -0.00012082872215982734,
                    -6.58997052509219e-05,
                    -1.2967864488828097e-06,
                    1.0,
                    1.0,
                    1.0,
                    1.0
                ],
                "velocities": [],
                "accelerations": [],
                "effort": [],
                "time_from_start": {
                    "secs": 0,
                    "nsecs": 0
                }
            },
            {
                "positions": [
                    -0.18814798367667152,
                    -0.07428831076462039,
                    0.5535649638822138,
                    -0.5411177374338534,
                    0.19209085781098523,
                    -0.0007206985916918818,
                    0.017111815088914017,
                    -0.18174170563343406,
                    -0.06868650737448823,
                    0.5581416312134277,
                    -0.5689842435594206,
                    0.20720117832391782,
                    -0.0007825487892909599,
                    -0.018235924365054057,
                    -0.009424305412046419,
                    -0.0012308512909164904,
                    -0.013648805309867118,
                    0.05566104587853582,
                    -0.041369394174639584,
                    0.09349264367372223,
                    0.0014120017685508301,
                    0.0006509419749627376,
                    0.0005594512932334261,
                    -0.03172612571672673,
                    0.060569881068649245,
                    -0.02621435619001078,
                    0.0003027294580184581,
                    -0.00047743080770867863,
                    1.0,
                    1.0,
                    1.0,
                    1.0
                ],
                "velocities": [],
                "accelerations": [],
                "effort": [],
                "time_from_start": {
                    "secs": 0,
                    "nsecs": 500000000
                }
            },
            {
                "positions": [
                    0.521853445283462,
                    0.3403392035787295,
                    0.03314994048772453,
                    -0.8395033703018571,
                    0.23304886946236705,
                    -0.09075712110338148,
                    -0.14796936134693212,
                    0.52596899997426,
                    0.07565999943112776,
                    0.004462000104296383,
                    -0.7404870000966729,
                    0.24979999983646878,
                    0.14541599937225802,
                    0.0647169599977343,
                    0.4507779989744847,
                    0.08004799981656242,
                    -0.7103910008059955,
                    0.6136799997051422,
                    -0.3344820001439016,
                    -0.008060000007340931,
                    -0.12629232000487184,
                    0.5501027559246325,
                    -0.14680002427384553,
                    -0.563883144934705,
                    -0.06234595097674929,
                    0.10159832880311623,
                    0.13624002464526844,
                    0.10650023865623517,
                    0.0,
                    1.0,
                    1.0,
                    1.0
                ],
                "velocities": [],
                "accelerations": [],
                "effort": [],
                "time_from_start": {
                    "secs": 1,
                    "nsecs": 500000000
                }
            },
            {
                "positions": [
                    -0.7147123297545189,
                    0.19853120185419112,
                    1.7164302465524777,
                    -1.4748032180277941,
                    0.2990060967156788,
                    -0.3119776037936627,
                    0.2510138386530668,
                    0.5298679999742599,
                    0.07981999943112776,
                    1.0429638993365705e-10,
                    -0.7400690000966732,
                    0.24994999983646887,
                    0.14994199937225786,
                    0.05969039999773445,
                    0.44966199897448506,
                    0.07999999981656247,
                    -0.7101820008059961,
                    0.6097919997051421,
                    -0.3300580001439018,
                    -0.010132000007340892,
                    -0.13006224000487177,
                    0.5495447559246319,
                    -0.15001602427384558,
                    -0.560121144934705,
                    -0.0601589509767493,
                    0.09986032880311621,
                    0.13994002464526833,
                    0.1099559986562352,
                    0.0,
                    1.0,
                    1.0,
                    1.0
                ],
                "velocities": [],
                "accelerations": [],
                "effort": [],
                "time_from_start": {
                    "secs": 2,
                    "nsecs": 500000000
                }
            },
            {
                "positions": [
                    -0.6648969999999986,
                    0.15391999999999975,
                    1.939999999999996,
                    -2.001592999999996,
                    0.3069499999999994,
                    -0.09256399999999976,
                    0.2510138399999993,
                    0.53,
                    0.08,
                    0.0,
                    -0.74,
                    0.25,
                    0.15,
                    0.06,
                    0.45,
                    0.08,
                    -0.71,
                    0.61,
                    -0.33,
                    -0.01,
                    -0.13,
                    0.55,
                    -0.15,
                    -0.56,
                    -0.06,
                    0.1,
                    0.14,
                    0.11,
                    0.0,
                    1.0,
                    1.0,
                    1.0
                ],
                "velocities": [],
                "accelerations": [],
                "effort": [],
                "time_from_start": {
                    "secs": 3,
                    "nsecs": 0
                }
            },
            {
                "positions": [
                    0.7657632082496696,
                    0.2438799994398357,
                    1.7164302465524783,
                    -1.9512781038222444,
                    -0.35616902733388095,
                    -0.09075712110338158,
                    0.2510138386530663,
                    0.5299999999742602,
                    0.07999999943112779,
                    1.0429638993365705e-10,
                    -0.7400000000966735,
                    0.24999999983646884,
                    0.14999999937225778,
                    0.05999999999773441,
                    0.449999998974485,
                    0.07999999981656247,
                    -0.7100000008059962,
                    0.6099999997051424,
                    -0.3300000001439019,
                    -0.01000000000734086,
                    -0.13000000000487166,
                    0.5500007559246317,
                    -0.1500000242738455,
                    -0.5600011449347051,
                    -0.05999995097674928,
                    0.1000003288031161,
                    0.14000002464526837,
                    0.10999999865623505,
                    0.0,
                    1.0,
                    1.0,
                    1.0
                ],
                "velocities": [],
                "accelerations": [],
                "effort": [],
                "time_from_start": {
                    "secs": 4,
                    "nsecs": 0
                }
            },
            {
                "positions": [
                    0.8678649694913374,
                    0.22122048213011705,
                    1.0165981718209618,
                    0.0,
                    0.2990060967156788,
                    -0.09075712110338158,
                    0.2510138386530663,
                    0.5299999999742602,
                    0.07999999943112779,
                    1.0429638993365705e-10,
                    -0.7400000000966735,
                    0.24999999983646884,
                    0.14999999937225778,
                    0.05999999999773441,
                    0.449999998974485,
                    0.07999999981656247,
                    -0.7100000008059962,
                    0.6099999997051424,
                    -0.3300000001439019,
                    -0.01000000000734086,
                    -0.13000000000487166,
                    0.5500007559246317,
                    -0.1500000242738455,
                    -0.5600011449347051,
                    -0.05999995097674928,
                    0.1000003288031161,
                    0.14000002464526837,
                    0.10999999865623505,
                    0.0,
                    1.0,
                    1.0,
                    1.0
                ],
                "velocities": [],
                "accelerations": [],
                "effort": [],
                "time_from_start": {
                    "secs": 5,
                    "nsecs": 0
                }
            },
            {
                "positions": [
                    0.8674099989371565,
                    0.22099999943983575,
                    1.0165600001057042,
                    0.0,
                    0.29899999983399994,
                    -0.09075712110305804,
                    0.2510138373061333,
                    0.5299999999485202,
                    0.0799999988622557,
                    2.085927798673139e-10,
                    -0.7400000001933464,
                    0.24999999967293768,
                    0.14999999874451578,
                    0.05999999999546883,
                    0.44999999794897,
                    0.07999999963312492,
                    -0.7100000016119924,
                    0.6099999994102852,
                    -0.33000000028780363,
                    -0.010000000014681718,
                    -0.1300000000097433,
                    0.5500015118492636,
                    -0.15000004854769092,
                    -0.5600022898694101,
                    -0.05999990195349858,
                    0.10000065760623222,
                    0.14000004929053683,
                    0.10999999731247011,
                    0.0,
                    1.0,
                    1.0,
                    1.0
                ],
                "velocities": [],
                "accelerations": [],
                "effort": [],
                "time_from_start": {
                    "secs": 6,
                    "nsecs": 0
                }
            },
            {
                "positions": [
                    0.77,
                    0.24,
                    1.72,
                    -1.95,
                    -0.36,
                    -0.09256399999999976,
                    0.2510138399999993,
                    0.53,
                    0.08,
                    0.0,
                    -0.74,
                    0.25,
                    0.15,
                    0.06,
                    0.45,
                    0.08,
                    -0.71,
                    0.61,
                    -0.33,
                    -0.01,
                    -0.13,
                    0.55,
                    -0.15,
                    -0.56,
                    -0.06,
                    0.1,
                    0.14,
                    0.11,
                    0.0,
                    1.0,
                    1.0,
                    1.0
                ],
                "velocities": [],
                "accelerations": [],
                "effort": [],
                "time_from_start": {
                    "secs": 7,
                    "nsecs": 0
                }
            },
            {
                "positions": [
                    -0.6648969999999986,
                    0.15391999999999975,
                    1.939999999999996,
                    -2.001592999999996,
                    0.3069499999999994,
                    -0.09256399999999976,
                    0.2510138399999993,
                    0.53,
                    0.08,
                    0.0,
                    -0.74,
                    0.25,
                    0.15,
                    0.06,
                    0.45,
                    0.08,
                    -0.71,
                    0.61,
                    -0.33,
                    -0.01,
                    -0.13,
                    0.55,
                    -0.15,
                    -0.56,
                    -0.06,
                    0.1,
                    0.14,
                    0.11,
                    0.0,
                    1.0,
                    1.0,
                    1.0
                ],
                "velocities": [],
                "accelerations": [],
                "effort": [],
                "time_from_start": {
                    "secs": 8,
                    "nsecs": 0
                }
            },
            {
                "positions": [
                    -0.71,
                    0.2,
                    1.72,
                    -1.47,
                    0.3,
                    -0.31,
                    0.25114522160285124,
                    0.53,
                    0.08,
                    0.0,
                    -0.74,
                    0.25,
                    0.15,
                    0.06,
                    0.45,
                    0.08,
                    -0.71,
                    0.61,
                    -0.33,
                    -0.01,
                    -0.13,
                    0.55,
                    -0.15,
                    -0.56,
                    -0.06,
                    0.1,
                    0.14,
                    0.11,
                    0.0,
                    1.0,
                    1.0,
                    1.0
                ],
                "velocities": [],
                "accelerations": [],
                "effort": [],
                "time_from_start": {
                    "secs": 8,
                    "nsecs": 500000000
                }
            },
            {
                "positions": [
                    0.52,
                    0.34,
                    0.03,
                    -0.84,
                    0.23,
                    -0.09,
                    -0.15,
                    0.53,
                    0.08,
                    0.0,
                    -0.74,
                    0.25,
                    0.15,
                    0.06,
                    0.45,
                    0.08,
                    -0.71,
                    0.61,
                    -0.33,
                    -0.01,
                    -0.13,
                    0.55,
                    -0.15,
                    -0.56,
                    -0.06,
                    0.1,
                    0.14,
                    0.11,
                    1.0,
                    1.0,
                    1.0,
                    1.0
                ],
                "velocities": [],
                "accelerations": [],
                "effort": [],
                "time_from_start": {
                    "secs": 9,
                    "nsecs": 500000000
                }
            },
            {
                "positions": [
                    -0.18814798367667152,
                    -0.07428831076462039,
                    0.5535649638822138,
                    -0.5411177374338534,
                    0.19209085781098523,
                    -0.0007206985916918818,
                    0.017111815088914017,
                    -0.18174170563343406,
                    -0.06868650737448823,
                    0.5581416312134277,
                    -0.5689842435594206,
                    0.20720117832391782,
                    -0.0007825487892909599,
                    -0.018235924365054057,
                    -0.009424305412046419,
                    -0.0012308512909164904,
                    -0.013648805309867118,
                    0.05566104587853582,
                    -0.041369394174639584,
                    0.09349264367372223,
                    0.0014120017685508301,
                    0.0006509419749627376,
                    0.0005594512932334261,
                    -0.03172612571672673,
                    0.060569881068649245,
                    -0.02621435619001078,
                    0.0003027294580184581,
                    -0.00047743080770867863,
                    1.0,
                    1.0,
                    1.0,
                    1.0
                ],
                "velocities": [],
                "accelerations": [],
                "effort": [],
                "time_from_start": {
                    "secs": 10,
                    "nsecs": 500000000
                }
            },
            {
                "positions": [
                    -0.00015202110202112125,
                    -0.00013108478063677441,
                    -1.5774013970783083e-05,
                    1.3691425090024622e-05,
                    -5.8518934209226665e-05,
                    7.184616900178618e-09,
                    -1.1995518315415512e-07,
                    -0.0003934596063166157,
                    -0.00012872749058941512,
                    -1.5362377322047067e-05,
                    1.418736247798167e-05,
                    -5.887317480911804e-05,
                    -1.0366362887754463e-08,
                    1.7333843057690055e-07,
                    -0.0004058413159086881,
                    -2.1392702096357185e-05,
                    -2.081375251107204e-05,
                    -6.909425825222595e-05,
                    -0.0001208095503727445,
                    -6.478506018163861e-05,
                    1.2926832995387172e-06,
                    -0.00016229634765524864,
                    -2.0493170178294954e-05,
                    -2.081913945370392e-05,
                    -6.905744738371365e-05,
                    -0.00012082872215982734,
                    -6.58997052509219e-05,
                    -1.2967864488828097e-06,
                    1.0,
                    1.0,
                    1.0,
                    1.0
                ],
                "velocities": [],
                "accelerations": [],
                "effort": [],
                "time_from_start": {
                    "secs": 11,
                    "nsecs": 0
                }
            },
            {
                "positions": [
                    -0.00039948544007411386,
                    -0.0002615092144914608,
                    8.83763835718219e-06,
                    -7.865732327065497e-06,
                    -9.716909542228108e-05,
                    8.248519294369584e-08,
                    -0.0003137298191181242,
                    -0.00039945255379321643,
                    -0.00026117948011889814,
                    8.921227836654548e-06,
                    -8.321586065227966e-06,
                    -9.694846579533823e-05,
                    -0.0001461691818164045,
                    -3.5414425159922317e-07,
                    -0.0006446145921296771,
                    -6.410291316445901e-05,
                    -0.00020847625217575036,
                    -0.0001377464569913683,
                    -0.00015431473541341854,
                    -6.64942573528135e-05,
                    1.5833356454333034e-07,
                    0.17584164131476454,
                    -0.005672237107850935,
                    -0.2665990041729945,
                    0.01134515604479821,
                    0.07643527312772576,
                    0.0056723235925011176,
                    -0.00031416910219654376,
                    1.0,
                    1.0,
                    1.0,
                    1.0
                ],
                "velocities": [],
                "accelerations": [],
                "effort": [],
                "time_from_start": {
                    "secs": 11,
                    "nsecs": 500000000
                }
            },
            {
                "positions": [
                    -0.00015202110202112125,
                    -0.00013108478063677441,
                    -1.5774013970783083e-05,
                    1.3691425090024622e-05,
                    -5.8518934209226665e-05,
                    7.184616900178618e-09,
                    -1.1995518315415512e-07,
                    -0.0003934596063166157,
                    -0.00012872749058941512,
                    -1.5362377322047067e-05,
                    1.418736247798167e-05,
                    -5.887317480911804e-05,
                    -1.0366362887754463e-08,
                    1.7333843057690055e-07,
                    -0.0004058413159086881,
                    -2.1392702096357185e-05,
                    -2.081375251107204e-05,
                    -6.909425825222595e-05,
                    -0.0001208095503727445,
                    -6.478506018163861e-05,
                    1.2926832995387172e-06,
                    -0.00016229634765524864,
                    -2.0493170178294954e-05,
                    -2.081913945370392e-05,
                    -6.905744738371365e-05,
                    -0.00012082872215982734,
                    -6.58997052509219e-05,
                    -1.2967864488828097e-06,
                    1.0,
                    1.0,
                    1.0,
                    1.0
                ],
                "velocities": [],
                "accelerations": [],
                "effort": [],
                "time_from_start": {
                    "secs": 12,
                    "nsecs": 0
                }
            }
        ]
    },
    "path_tolerance": [
        {
            "name": "leg1_joint1",
            "position": 0.522,
            "velocity": 0.0,
            "acceleration": 0.0
        },
        {
            "name": "leg1_joint2",
            "position": 0.522,
            "velocity": 0.0,
            "acceleration": 0.0
        },
        {
            "name": "leg1_joint3",
            "position": 0.522,
            "velocity": 0.0,
            "acceleration": 0.0
        },
        {
            "name": "leg1_joint4",
            "position": 0.522,
            "velocity": 0.0,
            "acceleration": 0.0
        },
        {
            "name": "leg1_joint5",
            "position": 0.522,
            "velocity": 0.0,
            "acceleration": 0.0
        },
        {
            "name": "leg1_joint6",
            "position": 0.522,
            "velocity": 0.0,
            "acceleration": 0.0
        },
        {
            "name": "leg1_joint7",
            "position": 0.522,
            "velocity": 0.0,
            "acceleration": 0.0
        },
        {
            "name": "leg2_joint1",
            "position": 0.522,
            "velocity": 0.0,
            "acceleration": 0.0
        },
        {
            "name": "leg2_joint2",
            "position": 0.522,
            "velocity": 0.0,
            "acceleration": 0.0
        },
        {
            "name": "leg2_joint3",
            "position": 0.522,
            "velocity": 0.0,
            "acceleration": 0.0
        },
        {
            "name": "leg2_joint4",
            "position": 0.522,
            "velocity": 0.0,
            "acceleration": 0.0
        },
        {
            "name": "leg2_joint5",
            "position": 0.522,
            "velocity": 0.0,
            "acceleration": 0.0
        },
        {
            "name": "leg2_joint6",
            "position": 0.522,
            "velocity": 0.0,
            "acceleration": 0.0
        },
        {
            "name": "leg2_joint7",
            "position": 0.522,
            "velocity": 0.0,
            "acceleration": 0.0
        },
        {
            "name": "leg3_joint1",
            "position": 0.522,
            "velocity": 0.0,
            "acceleration": 0.0
        },
        {
            "name": "leg3_joint2",
            "position": 0.522,
            "velocity": 0.0,
            "acceleration": 0.0
        },
        {
            "name": "leg3_joint3",
            "position": 0.522,
            "velocity": 0.0,
            "acceleration": 0.0
        },
        {
            "name": "leg3_joint4",
            "position": 0.522,
            "velocity": 0.0,
            "acceleration": 0.0
        },
        {
            "name": "leg3_joint5",
            "position": 0.522,
            "velocity": 0.0,
            "acceleration": 0.0
        },
        {
            "name": "leg3_joint6",
            "position": 0.522,
            "velocity": 0.0,
            "acceleration": 0.0
        },
        {
            "name": "leg3_joint7",
            "position": 0.522,
            "velocity": 0.0,
            "acceleration": 0.0
        },
        {
            "name": "leg4_joint1",
            "position": 0.522,
            "velocity": 0.0,
            "acceleration": 0.0
        },
        {
            "name": "leg4_joint2",
            "position": 0.522,
            "velocity": 0.0,
            "acceleration": 0.0
        },
        {
            "name": "leg4_joint3",
            "position": 0.522,
            "velocity": 0.0,
            "acceleration": 0.0
        },
        {
            "name": "leg4_joint4",
            "position": 0.522,
            "velocity": 0.0,
            "acceleration": 0.0
        },
        {
            "name": "leg4_joint5",
            "position": 0.522,
            "velocity": 0.0,
            "acceleration": 0.0
        },
        {
            "name": "leg4_joint6",
            "position": 0.522,
            "velocity": 0.0,
            "acceleration": 0.0
        },
        {
            "name": "leg4_joint7",
            "position": 0.522,
            "velocity": 0.0,
            "acceleration": 0.0
        }
    ],
    "goal_tolerance": [
        {
            "name": "leg1_joint1",
            "position": 0.174,
            "velocity": 0.0,
            "acceleration": 0.0
        },
        {
            "name": "leg1_joint2",
            "position": 0.174,
            "velocity": 0.0,
            "acceleration": 0.0
        },
        {
            "name": "leg1_joint3",
            "position": 0.174,
            "velocity": 0.0,
            "acceleration": 0.0
        },
        {
            "name": "leg1_joint4",
            "position": 0.174,
            "velocity": 0.0,
            "acceleration": 0.0
        },
        {
            "name": "leg1_joint5",
            "position": 0.174,
            "velocity": 0.0,
            "acceleration": 0.0
        },
        {
            "name": "leg1_joint6",
            "position": 0.174,
            "velocity": 0.0,
            "acceleration": 0.0
        },
        {
            "name": "leg1_joint7",
            "position": 0.174,
            "velocity": 0.0,
            "acceleration": 0.0
        },
        {
            "name": "leg2_joint1",
            "position": 0.174,
            "velocity": 0.0,
            "acceleration": 0.0
        },
        {
            "name": "leg2_joint2",
            "position": 0.174,
            "velocity": 0.0,
            "acceleration": 0.0
        },
        {
            "name": "leg2_joint3",
            "position": 0.174,
            "velocity": 0.0,
            "acceleration": 0.0
        },
        {
            "name": "leg2_joint4",
            "position": 0.174,
            "velocity": 0.0,
            "acceleration": 0.0
        },
        {
            "name": "leg2_joint5",
            "position": 0.174,
            "velocity": 0.0,
            "acceleration": 0.0
        },
        {
            "name": "leg2_joint6",
            "position": 0.174,
            "velocity": 0.0,
            "acceleration": 0.0
        },
        {
            "name": "leg2_joint7",
            "position": 0.174,
            "velocity": 0.0,
            "acceleration": 0.0
        },
        {
            "name": "leg3_joint1",
            "position": 0.174,
            "velocity": 0.0,
            "acceleration": 0.0
        },
        {
            "name": "leg3_joint2",
            "position": 0.174,
            "velocity": 0.0,
            "acceleration": 0.0
        },
        {
            "name": "leg3_joint3",
            "position": 0.174,
            "velocity": 0.0,
            "acceleration": 0.0
        },
        {
            "name": "leg3_joint4",
            "position": 0.174,
            "velocity": 0.0,
            "acceleration": 0.0
        },
        {
            "name": "leg3_joint5",
            "position": 0.174,
            "velocity": 0.0,
            "acceleration": 0.0
        },
        {
            "name": "leg3_joint6",
            "position": 0.174,
            "velocity": 0.0,
            "acceleration": 0.0
        },
        {
            "name": "leg3_joint7",
            "position": 0.174,
            "velocity": 0.0,
            "acceleration": 0.0
        },
        {
            "name": "leg4_joint1",
            "position": 0.174,
            "velocity": 0.0,
            "acceleration": 0.0
        },
        {
            "name": "leg4_joint2",
            "position": 0.174,
            "velocity": 0.0,
            "acceleration": 0.0
        },
        {
            "name": "leg4_joint3",
            "position": 0.174,
            "velocity": 0.0,
            "acceleration": 0.0
        },
        {
            "name": "leg4_joint4",
            "position": 0.174,
            "velocity": 0.0,
            "acceleration": 0.0
        },
        {
            "name": "leg4_joint5",
            "position": 0.174,
            "velocity": 0.0,
            "acceleration": 0.0
        },
        {
            "name": "leg4_joint6",
            "position": 0.174,
            "velocity": 0.0,
            "acceleration": 0.0
        },
        {
            "name": "leg4_joint7",
            "position": 0.174,
            "velocity": 0.0,
            "acceleration": 0.0
        }
    ],
    "goal_time_tolerance": {
        "secs": 0,
        "nsecs": 0
    }
}