{
    "trajectory": {
        "header": {
            "seq": 0,
            "stamp": {
                "secs": 1671736835,
                "nsecs": 551297594
            },
            "frame_id": ""
        },
        "joint_names": [
            "ear_l_joint",
            "ear_r_joint",
            "eyes_pitch",
            "eyes_yaw",
            "head_joint1",
            "head_joint2",
            "head_joint3",
            "head_joint4",
            "leg1_joint1",
            "leg1_joint2",
            "leg1_joint3",
            "leg1_joint4",
            "leg1_joint5",
            "leg1_joint6",
            "leg1_joint7",
            "leg2_joint1",
            "leg2_joint2",
            "leg2_joint3",
            "leg2_joint4",
            "leg2_joint5",
            "leg2_joint6",
            "leg2_joint7",
            "leg3_joint1",
            "leg3_joint2",
            "leg3_joint3",
            "leg3_joint4",
            "leg3_joint5",
            "leg3_joint6",
            "leg3_joint7",
            "leg4_joint1",
            "leg4_joint2",
            "leg4_joint3",
            "leg4_joint4",
            "leg4_joint5",
            "leg4_joint6",
            "leg4_joint7",
            "mouth_joint",
            "support/leg1",
            "support/leg2",
            "support/leg3",
            "support/leg4"
        ],
        "points": [
            {
                "positions": [
                    -0.37031479519115396,
                    -0.37031479519115396,
                    -0.5695720800000001,
                    -0.2243102400000001,
                    0.1526272977588931,
                    0.0499513231938421,
                    -0.56018087672192,
                    0.42997931452272,
                    -0.0003959999999998409,
                    -5.551115123125783e-17,
                    0.0,
                    0.0,
                    -9.999999999998899e-05,
                    0.0,
                    0.0,
                    -0.0003959999999998409,
                    -5.551115123125783e-17,
                    0.0,
                    0.0,
                    -9.999999999998899e-05,
                    0.0,
                    0.0,
                    -8.60000000000305e-05,
                    -1.6000000000016e-05,
                    0.0,
                    -0.000138000000000027,
                    -0.00015399999999998748,
                    -6.799999999995698e-05,
                    0.0,
                    -8.60000000000305e-05,
                    -1.6000000000016e-05,
                    0.0,
                    -0.000138000000000027,
                    -0.00015399999999998748,
                    -6.799999999995698e-05,
                    0.0,
                    -1.962060825194678e-05,
                    0.0,
                    0.0,
                    0.0,
                    0.0
                ],
                "velocities": [],
                "accelerations": [],
                "effort": [],
                "time_from_start": {
                    "secs": 0,
                    "nsecs": 0
                }
            },
            {
                "positions": [
                    -0.37031479519115396,
                    -0.37031479519115396,
                    -0.5695720800000001,
                    -0.2243102400000001,
                    0.1526272977588931,
                    0.0499513231938421,
                    -0.56018087672192,
                    0.42997931452272,
                    -0.0003959999999998409,
                    -5.551115123125783e-17,
                    0.0,
                    0.0,
                    -9.999999999998899e-05,
                    0.0,
                    0.0,
                    -0.0003959999999998409,
                    0.0,
                    0.0,
                    0.0,
                    -9.999999999998899e-05,
                    0.0,
                    0.0,
                    -8.60000000000305e-05,
                    -1.6000000000016e-05,
                    0.0,
                    -0.000138000000000027,
                    -0.00015399999999998748,
                    -6.799999999995698e-05,
                    0.0,
                    -8.60000000000305e-05,
                    -1.6000000000016e-05,
                    0.0,
                    -0.000138000000000027,
                    -0.00015399999999998748,
                    -6.799999999995698e-05,
                    0.0,
                    -1.962060825194678e-05,
                    0.0,
                    0.0,
                    0.0,
                    0.0
                ],
                "velocities": [],
                "accelerations": [],
                "effort": [],
                "time_from_start": {
                    "secs": 0,
                    "nsecs": 400000000
                }
            },
            {
                "positions": [
                    -0.053291778303047876,
                    -0.053291778303047876,
                    -0.5054834399999999,
                    0.09676128000000017,
                    0.22067070397732647,
                    0.03389080341696382,
                    -0.13069025438976012,
                    0.14744541520896015,
                    0.0,
                    0.0,
                    0.003104,
                    0.0,
                    0.0,
                    0.0,
                    0.0,
                    0.0,
                    0.0,
                    -0.003154543465461344,
                    0.0,
                    0.0,
                    0.0,
                    0.0,
                    0.0,
                    0.0,
                    0.0,
                    0.0,
                    0.0,
                    0.0,
                    0.0,
                    0.0,
                    0.0,
                    0.0,
                    0.0,
                    0.0,
                    0.0,
                    0.0,
                    -0.17098493418951805,
                    0.0,
                    0.0,
                    0.0,
                    0.0
                ],
                "velocities": [],
                "accelerations": [],
                "effort": [],
                "time_from_start": {
                    "secs": 0,
                    "nsecs": 700000000
                }
            },
            {
                "positions": [
                    -0.053291778303047876,
                    -0.053291778303047876,
                    -0.5054834399999999,
                    0.09676128000000017,
                    0.22067070397732647,
                    0.03389080341696382,
                    -0.13069025438976012,
                    0.14744541520896015,
                    0.0,
                    0.0,
                    0.003104,
                    0.0,
                    0.0,
                    0.0,
                    0.0,
                    0.0,
                    0.0,
                    -0.003154543465461344,
                    0.0,
                    0.0,
                    0.0,
                    0.0,
                    0.0,
                    0.0,
                    0.0,
                    0.0,
                    0.0,
                    0.0,
                    0.0,
                    0.0,
                    0.0,
                    0.0,
                    0.0,
                    0.0,
                    0.0,
                    0.0,
                    -0.17098493418951805,
                    0.0,
                    0.0,
                    0.0,
                    0.0
                ],
                "velocities": [],
                "accelerations": [],
                "effort": [],
                "time_from_start": {
                    "secs": 2,
                    "nsecs": 0
                }
            },
            {
                "positions": [
                    -0.053291778303047876,
                    -0.053291778303047876,
                    -0.08639400000000008,
                    0.29342544000000004,
                    0.2342628085186501,
                    0.13046336158657615,
                    -0.3063052837250048,
                    0.14748032179352086,
                    0.0,
                    0.0,
                    0.003104,
                    0.0,
                    0.0,
                    0.0,
                    0.0,
                    0.0,
                    0.0,
                    -0.003154543465461344,
                    0.0,
                    0.0,
                    0.0,
                    0.0,
                    0.0,
                    0.0,
                    0.0,
                    0.0,
                    0.0,
                    0.0,
                    0.0,
                    0.0,
                    0.0,
                    0.0,
                    0.0,
                    0.0,
                    0.0,
                    0.0,
                    -0.17098493418951805,
                    0.0,
                    0.0,
                    0.0,
                    0.0
                ],
                "velocities": [],
                "accelerations": [],
                "effort": [],
                "time_from_start": {
                    "secs": 2,
                    "nsecs": 200000000
                }
            },
            {
                "positions": [
                    -0.053291778303047876,
                    -0.053291778303047876,
                    -0.08639400000000008,
                    0.29342544000000004,
                    0.2342628085186501,
                    0.13046336158657615,
                    -0.3063052837250048,
                    0.14748032179352086,
                    0.0,
                    0.0,
                    0.003104,
                    0.0,
                    0.0,
                    0.0,
                    0.0,
                    0.0,
                    0.0,
                    -0.003154543465461344,
                    0.0,
                    0.0,
                    0.0,
                    0.0,
                    0.0,
                    0.0,
                    0.0,
                    0.0,
                    0.0,
                    0.0,
                    0.0,
                    0.0,
                    0.0,
                    0.0,
                    0.0,
                    0.0,
                    0.0,
                    0.0,
                    -0.17098493418951805,
                    0.0,
                    0.0,
                    0.0,
                    0.0
                ],
                "velocities": [],
                "accelerations": [],
                "effort": [],
                "time_from_start": {
                    "secs": 2,
                    "nsecs": 500000000
                }
            },
            {
                "positions": [
                    -0.053291778303047876,
                    -0.053291778303047876,
                    -0.5350144800000001,
                    -0.2243102400000001,
                    0.2342628085186501,
                    0.13046336158657615,
                    -0.3063052837250048,
                    0.14748032179352086,
                    0.0,
                    0.0,
                    0.003104,
                    0.0,
                    0.0,
                    0.0,
                    0.0,
                    0.0,
                    0.0,
                    -0.003154543465461344,
                    0.0,
                    0.0,
                    0.0,
                    0.0,
                    0.0,
                    0.0,
                    0.0,
                    0.0,
                    0.0,
                    0.0,
                    0.0,
                    0.0,
                    0.0,
                    0.0,
                    0.0,
                    0.0,
                    0.0,
                    0.0,
                    -0.17098493418951805,
                    0.0,
                    0.0,
                    0.0,
                    0.0
                ],
                "velocities": [],
                "accelerations": [],
                "effort": [],
                "time_from_start": {
                    "secs": 2,
                    "nsecs": 600000000
                }
            },
            {
                "positions": [
                    -0.053291778303047876,
                    -0.053291778303047876,
                    -0.5353286399999999,
                    0.017278799999999928,
                    0.2368949749065001,
                    0.0,
                    -0.079412480965742,
                    0.18151424220741028,
                    0.0,
                    0.0,
                    0.003104,
                    0.0,
                    0.0,
                    0.0,
                    0.0,
                    0.0,
                    0.0,
                    -0.003154543465461344,
                    0.0,
                    0.0,
                    0.0,
                    0.0,
                    0.0,
                    0.0,
                    0.0,
                    0.0,
                    0.0,
                    0.0,
                    0.0,
                    0.0,
                    0.0,
                    0.0,
                    0.0,
                    0.0,
                    0.0,
                    0.0,
                    -0.17098493418951805,
                    0.0,
                    0.0,
                    0.0,
                    0.0
                ],
                "velocities": [],
                "accelerations": [],
                "effort": [],
                "time_from_start": {
                    "secs": 2,
                    "nsecs": 800000000
                }
            },
            {
                "positions": [
                    -0.053291778303047876,
                    -0.053291778303047876,
                    -0.5353286399999999,
                    0.017278799999999928,
                    0.2368949749065001,
                    0.0,
                    -0.079412480965742,
                    0.18151424220741028,
                    0.0,
                    0.0,
                    0.003104,
                    0.0,
                    0.0,
                    0.0,
                    0.0,
                    0.0,
                    0.0,
                    -0.003154543465461344,
                    0.0,
                    0.0,
                    0.0,
                    0.0,
                    0.0,
                    0.0,
                    0.0,
                    0.0,
                    0.0,
                    0.0,
                    0.0,
                    0.0,
                    0.0,
                    0.0,
                    0.0,
                    0.0,
                    0.0,
                    0.0,
                    -0.17098493418951805,
                    0.0,
                    0.0,
                    0.0,
                    0.0
                ],
                "velocities": [],
                "accelerations": [],
                "effort": [],
                "time_from_start": {
                    "secs": 3,
                    "nsecs": 0
                }
            }
        ]
    },
    "path_tolerance": [
        {
            "name": "ear_l_joint",
            "position": 0.522,
            "velocity": 0.0,
            "acceleration": 0.0
        },
        {
            "name": "ear_r_joint",
            "position": 0.522,
            "velocity": 0.0,
            "acceleration": 0.0
        },
        {
            "name": "eyes_pitch",
            "position": 0.522,
            "velocity": 0.0,
            "acceleration": 0.0
        },
        {
            "name": "eyes_yaw",
            "position": 0.522,
            "velocity": 0.0,
            "acceleration": 0.0
        },
        {
            "name": "head_joint1",
            "position": 0.522,
            "velocity": 0.0,
            "acceleration": 0.0
        },
        {
            "name": "head_joint2",
            "position": 0.522,
            "velocity": 0.0,
            "acceleration": 0.0
        },
        {
            "name": "head_joint3",
            "position": 0.522,
            "velocity": 0.0,
            "acceleration": 0.0
        },
        {
            "name": "head_joint4",
            "position": 0.522,
            "velocity": 0.0,
            "acceleration": 0.0
        },
        {
            "name": "leg1_joint1",
            "position": 0.522,
            "velocity": 0.0,
            "acceleration": 0.0
        },
        {
            "name": "leg1_joint2",
            "position": 0.522,
            "velocity": 0.0,
            "acceleration": 0.0
        },
        {
            "name": "leg1_joint3",
            "position": 0.522,
            "velocity": 0.0,
            "acceleration": 0.0
        },
        {
            "name": "leg1_joint4",
            "position": 0.522,
            "velocity": 0.0,
            "acceleration": 0.0
        },
        {
            "name": "leg1_joint5",
            "position": 0.522,
            "velocity": 0.0,
            "acceleration": 0.0
        },
        {
            "name": "leg1_joint6",
            "position": 0.522,
            "velocity": 0.0,
            "acceleration": 0.0
        },
        {
            "name": "leg1_joint7",
            "position": 0.522,
            "velocity": 0.0,
            "acceleration": 0.0
        },
        {
            "name": "leg2_joint1",
            "position": 0.522,
            "velocity": 0.0,
            "acceleration": 0.0
        },
        {
            "name": "leg2_joint2",
            "position": 0.522,
            "velocity": 0.0,
            "acceleration": 0.0
        },
        {
            "name": "leg2_joint3",
            "position": 0.522,
            "velocity": 0.0,
            "acceleration": 0.0
        },
        {
            "name": "leg2_joint4",
            "position": 0.522,
            "velocity": 0.0,
            "acceleration": 0.0
        },
        {
            "name": "leg2_joint5",
            "position": 0.522,
            "velocity": 0.0,
            "acceleration": 0.0
        },
        {
            "name": "leg2_joint6",
            "position": 0.522,
            "velocity": 0.0,
            "acceleration": 0.0
        },
        {
            "name": "leg2_joint7",
            "position": 0.522,
            "velocity": 0.0,
            "acceleration": 0.0
        },
        {
            "name": "leg3_joint1",
            "position": 0.522,
            "velocity": 0.0,
            "acceleration": 0.0
        },
        {
            "name": "leg3_joint2",
            "position": 0.522,
            "velocity": 0.0,
            "acceleration": 0.0
        },
        {
            "name": "leg3_joint3",
            "position": 0.522,
            "velocity": 0.0,
            "acceleration": 0.0
        },
        {
            "name": "leg3_joint4",
            "position": 0.522,
            "velocity": 0.0,
            "acceleration": 0.0
        },
        {
            "name": "leg3_joint5",
            "position": 0.522,
            "velocity": 0.0,
            "acceleration": 0.0
        },
        {
            "name": "leg3_joint6",
            "position": 0.522,
            "velocity": 0.0,
            "acceleration": 0.0
        },
        {
            "name": "leg3_joint7",
            "position": 0.522,
            "velocity": 0.0,
            "acceleration": 0.0
        },
        {
            "name": "leg4_joint1",
            "position": 0.522,
            "velocity": 0.0,
            "acceleration": 0.0
        },
        {
            "name": "leg4_joint2",
            "position": 0.522,
            "velocity": 0.0,
            "acceleration": 0.0
        },
        {
            "name": "leg4_joint3",
            "position": 0.522,
            "velocity": 0.0,
            "acceleration": 0.0
        },
        {
            "name": "leg4_joint4",
            "position": 0.522,
            "velocity": 0.0,
            "acceleration": 0.0
        },
        {
            "name": "leg4_joint5",
            "position": 0.522,
            "velocity": 0.0,
            "acceleration": 0.0
        },
        {
            "name": "leg4_joint6",
            "position": 0.522,
            "velocity": 0.0,
            "acceleration": 0.0
        },
        {
            "name": "leg4_joint7",
            "position": 0.522,
            "velocity": 0.0,
            "acceleration": 0.0
        },
        {
            "name": "mouth_joint",
            "position": 0.522,
            "velocity": 0.0,
            "acceleration": 0.0
        }
    ],
    "goal_tolerance": [
        {
            "name": "ear_l_joint",
            "position": 0.174,
            "velocity": 0.0,
            "acceleration": 0.0
        },
        {
            "name": "ear_r_joint",
            "position": 0.174,
            "velocity": 0.0,
            "acceleration": 0.0
        },
        {
            "name": "eyes_pitch",
            "position": 0.174,
            "velocity": 0.0,
            "acceleration": 0.0
        },
        {
            "name": "eyes_yaw",
            "position": 0.174,
            "velocity": 0.0,
            "acceleration": 0.0
        },
        {
            "name": "head_joint1",
            "position": 0.174,
            "velocity": 0.0,
            "acceleration": 0.0
        },
        {
            "name": "head_joint2",
            "position": 0.174,
            "velocity": 0.0,
            "acceleration": 0.0
        },
        {
            "name": "head_joint3",
            "position": 0.174,
            "velocity": 0.0,
            "acceleration": 0.0
        },
        {
            "name": "head_joint4",
            "position": 0.174,
            "velocity": 0.0,
            "acceleration": 0.0
        },
        {
            "name": "leg1_joint1",
            "position": 0.174,
            "velocity": 0.0,
            "acceleration": 0.0
        },
        {
            "name": "leg1_joint2",
            "position": 0.174,
            "velocity": 0.0,
            "acceleration": 0.0
        },
        {
            "name": "leg1_joint3",
            "position": 0.174,
            "velocity": 0.0,
            "acceleration": 0.0
        },
        {
            "name": "leg1_joint4",
            "position": 0.174,
            "velocity": 0.0,
            "acceleration": 0.0
        },
        {
            "name": "leg1_joint5",
            "position": 0.174,
            "velocity": 0.0,
            "acceleration": 0.0
        },
        {
            "name": "leg1_joint6",
            "position": 0.174,
            "velocity": 0.0,
            "acceleration": 0.0
        },
        {
            "name": "leg1_joint7",
            "position": 0.174,
            "velocity": 0.0,
            "acceleration": 0.0
        },
        {
            "name": "leg2_joint1",
            "position": 0.174,
            "velocity": 0.0,
            "acceleration": 0.0
        },
        {
            "name": "leg2_joint2",
            "position": 0.174,
            "velocity": 0.0,
            "acceleration": 0.0
        },
        {
            "name": "leg2_joint3",
            "position": 0.174,
            "velocity": 0.0,
            "acceleration": 0.0
        },
        {
            "name": "leg2_joint4",
            "position": 0.174,
            "velocity": 0.0,
            "acceleration": 0.0
        },
        {
            "name": "leg2_joint5",
            "position": 0.174,
            "velocity": 0.0,
            "acceleration": 0.0
        },
        {
            "name": "leg2_joint6",
            "position": 0.174,
            "velocity": 0.0,
            "acceleration": 0.0
        },
        {
            "name": "leg2_joint7",
            "position": 0.174,
            "velocity": 0.0,
            "acceleration": 0.0
        },
        {
            "name": "leg3_joint1",
            "position": 0.174,
            "velocity": 0.0,
            "acceleration": 0.0
        },
        {
            "name": "leg3_joint2",
            "position": 0.174,
            "velocity": 0.0,
            "acceleration": 0.0
        },
        {
            "name": "leg3_joint3",
            "position": 0.174,
            "velocity": 0.0,
            "acceleration": 0.0
        },
        {
            "name": "leg3_joint4",
            "position": 0.174,
            "velocity": 0.0,
            "acceleration": 0.0
        },
        {
            "name": "leg3_joint5",
            "position": 0.174,
            "velocity": 0.0,
            "acceleration": 0.0
        },
        {
            "name": "leg3_joint6",
            "position": 0.174,
            "velocity": 0.0,
            "acceleration": 0.0
        },
        {
            "name": "leg3_joint7",
            "position": 0.174,
            "velocity": 0.0,
            "acceleration": 0.0
        },
        {
            "name": "leg4_joint1",
            "position": 0.174,
            "velocity": 0.0,
            "acceleration": 0.0
        },
        {
            "name": "leg4_joint2",
            "position": 0.174,
            "velocity": 0.0,
            "acceleration": 0.0
        },
        {
            "name": "leg4_joint3",
            "position": 0.174,
            "velocity": 0.0,
            "acceleration": 0.0
        },
        {
            "name": "leg4_joint4",
            "position": 0.174,
            "velocity": 0.0,
            "acceleration": 0.0
        },
        {
            "name": "leg4_joint5",
            "position": 0.174,
            "velocity": 0.0,
            "acceleration": 0.0
        },
        {
            "name": "leg4_joint6",
            "position": 0.174,
            "velocity": 0.0,
            "acceleration": 0.0
        },
        {
            "name": "leg4_joint7",
            "position": 0.174,
            "velocity": 0.0,
            "acceleration": 0.0
        },
        {
            "name": "mouth_joint",
            "position": 0.174,
            "velocity": 0.0,
            "acceleration": 0.0
        }
    ],
    "goal_time_tolerance": {
        "secs": 0,
        "nsecs": 0
    }
}