{
    "trajectory": {
        "header": {
            "seq": 0,
            "stamp": {
                "secs": 1702238543,
                "nsecs": 659984231
            },
            "frame_id": ""
        },
        "joint_names": [
            "ear_l_joint",
            "ear_r_joint",
            "eyes_pitch",
            "eyes_yaw",
            "head_joint1",
            "head_joint2",
            "head_joint3",
            "head_joint4",
            "leg1_joint1",
            "leg1_joint2",
            "leg1_joint3",
            "leg1_joint4",
            "leg1_joint5",
            "leg1_joint6",
            "leg1_joint7",
            "leg2_joint1",
            "leg2_joint2",
            "leg2_joint3",
            "leg2_joint4",
            "leg2_joint5",
            "leg2_joint6",
            "leg2_joint7",
            "leg3_joint1",
            "leg3_joint2",
            "leg3_joint3",
            "leg3_joint4",
            "leg3_joint5",
            "leg3_joint6",
            "leg3_joint7",
            "leg4_joint1",
            "leg4_joint2",
            "leg4_joint3",
            "leg4_joint4",
            "leg4_joint5",
            "leg4_joint6",
            "leg4_joint7",
            "mouth_joint",
            "support/leg1",
            "support/leg2",
            "support/leg3",
            "support/leg4"
        ],
        "points": [
            {
                "positions": [
                    -0.370156836537996,
                    -0.370156836537996,
                    0.26986343999682016,
                    0.02450448000000005,
                    0.15005034582440255,
                    -0.03943233898856825,
                    -0.6517511360341406,
                    0.5105560893159058,
                    -0.0003959999999998409,
                    -5.551115123125783e-17,
                    0.0,
                    0.0,
                    -9.999999999998899e-05,
                    0.0,
                    0.0,
                    -0.0003959999999998409,
                    -5.551115123125783e-17,
                    0.0,
                    0.0,
                    -9.999999999998899e-05,
                    0.0,
                    0.0,
                    -8.60000000000305e-05,
                    -1.6000000000016e-05,
                    0.0,
                    -0.000138000000000027,
                    -0.00015399999999998748,
                    -6.799999999995698e-05,
                    0.0,
                    -8.60000000000305e-05,
                    -1.6000000000016e-05,
                    0.0,
                    -0.000138000000000027,
                    -0.00015399999999998748,
                    0.0,
                    0.0,
                    -1.962060825194678e-05,
                    0.0,
                    0.0,
                    0.0,
                    0.0
                ],
                "velocities": [],
                "accelerations": [],
                "effort": [],
                "time_from_start": {
                    "secs": 0,
                    "nsecs": 0
                }
            },
            {
                "positions": [
                    -0.370156836537996,
                    -0.37,
                    0.26986343999682016,
                    0.02450448000000005,
                    0.1499831239421146,
                    -0.03950203695877019,
                    -0.65177575586688,
                    0.51040408645488,
                    -0.0003959999999998409,
                    -5.551115123125783e-17,
                    0.0,
                    0.0,
                    -9.999999999998899e-05,
                    0.0,
                    0.0,
                    -0.0003959999999998409,
                    -5.551115123125783e-17,
                    0.0,
                    0.0,
                    -9.999999999998899e-05,
                    0.0,
                    0.0,
                    -8.60000000000305e-05,
                    -1.6000000000016e-05,
                    0.0,
                    -0.000138000000000027,
                    -0.00015399999999998748,
                    -6.799999999995698e-05,
                    0.0,
                    -8.60000000000305e-05,
                    -1.6000000000016e-05,
                    0.0,
                    -0.000138000000000027,
                    -0.00015399999999998748,
                    0.0,
                    0.0,
                    -0.13,
                    0.0,
                    0.0,
                    0.0,
                    0.0
                ],
                "velocities": [],
                "accelerations": [],
                "effort": [],
                "time_from_start": {
                    "secs": 0,
                    "nsecs": 100000000
                }
            },
            {
                "positions": [
                    -0.37,
                    -0.37,
                    0.36254063999999975,
                    -0.12095159999999994,
                    0.12107965384110006,
                    0.20420352248333656,
                    -0.8054694497953832,
                    0.32899456400093113,
                    -0.0003959999999998409,
                    -5.551115123125783e-17,
                    0.0,
                    0.0,
                    -9.999999999998899e-05,
                    0.0,
                    0.0,
                    -0.0003959999999998409,
                    -5.551115123125783e-17,
                    0.0,
                    0.0,
                    -9.999999999998899e-05,
                    0.0,
                    0.0,
                    -8.60000000000305e-05,
                    -1.6000000000016e-05,
                    0.0,
                    -0.000138000000000027,
                    -0.00015399999999998748,
                    -6.799999999995698e-05,
                    0.0,
                    -8.60000000000305e-05,
                    -1.6000000000016e-05,
                    0.0,
                    -0.000138000000000027,
                    -0.00015399999999998748,
                    0.0,
                    0.0,
                    -0.13,
                    0.0,
                    0.0,
                    0.0,
                    0.0
                ],
                "velocities": [],
                "accelerations": [],
                "effort": [],
                "time_from_start": {
                    "secs": 1,
                    "nsecs": 0
                }
            },
            {
                "positions": [
                    -5.9712188801963606e-05,
                    -5.9712188801963606e-05,
                    0.60412968,
                    -0.36254063999999997,
                    0.1499831239421146,
                    0.23819555499725154,
                    -0.8282634498291199,
                    0.13027137536928013,
                    -0.0003959999999998409,
                    -5.551115123125783e-17,
                    0.0,
                    0.0,
                    -9.999999999998899e-05,
                    0.0,
                    0.0,
                    -0.0003959999999998409,
                    -5.551115123125783e-17,
                    0.0,
                    0.0,
                    -9.999999999998899e-05,
                    0.0,
                    0.0,
                    -8.60000000000305e-05,
                    -1.6000000000016e-05,
                    0.0,
                    -0.000138000000000027,
                    -0.00015399999999998748,
                    -6.799999999995698e-05,
                    0.0,
                    -8.60000000000305e-05,
                    -1.6000000000016e-05,
                    0.0,
                    -0.000138000000000027,
                    -0.00015399999999998748,
                    0.0,
                    0.0,
                    -0.13,
                    0.0,
                    0.0,
                    0.0,
                    0.0
                ],
                "velocities": [],
                "accelerations": [],
                "effort": [],
                "time_from_start": {
                    "secs": 1,
                    "nsecs": 500000000
                }
            },
            {
                "positions": [
                    -0.37031479519115396,
                    0.0,
                    0.12095159999999994,
                    -0.36254063999999997,
                    0.15527147157567162,
                    0.11886215805044742,
                    -0.8849517439340799,
                    0.016755160819200032,
                    -0.0003959999999998409,
                    -5.551115123125783e-17,
                    0.0,
                    0.0,
                    -9.999999999998899e-05,
                    0.0,
                    0.0,
                    -0.0003959999999998409,
                    -5.551115123125783e-17,
                    0.0,
                    0.0,
                    -9.999999999998899e-05,
                    0.0,
                    0.0,
                    -8.60000000000305e-05,
                    -1.6000000000016e-05,
                    0.0,
                    -0.000138000000000027,
                    -0.00015399999999998748,
                    -6.799999999995698e-05,
                    0.0,
                    -8.60000000000305e-05,
                    -1.6000000000016e-05,
                    0.0,
                    -0.000138000000000027,
                    -0.00015399999999998748,
                    0.0,
                    0.0,
                    -0.13,
                    0.0,
                    0.0,
                    0.0,
                    0.0
                ],
                "velocities": [],
                "accelerations": [],
                "effort": [],
                "time_from_start": {
                    "secs": 2,
                    "nsecs": 0
                }
            },
            {
                "positions": [
                    -0.37031479519115396,
                    -0.37031479519115396,
                    -0.08639400000000008,
                    -0.08639400000000008,
                    0.2,
                    -0.0624723152443053,
                    -0.73750632872512,
                    0.30054569719439983,
                    -0.0003959999999998409,
                    -5.551115123125783e-17,
                    0.0,
                    0.0,
                    -9.999999999998899e-05,
                    0.0,
                    0.0,
                    -0.0003959999999998409,
                    -5.551115123125783e-17,
                    0.0,
                    0.0,
                    -9.999999999998899e-05,
                    0.0,
                    0.0,
                    -8.60000000000305e-05,
                    -1.6000000000016e-05,
                    0.0,
                    -0.000138000000000027,
                    -0.00015399999999998748,
                    -6.799999999995698e-05,
                    0.0,
                    -8.60000000000305e-05,
                    -1.6000000000016e-05,
                    0.0,
                    -0.000138000000000027,
                    -0.00015399999999998748,
                    0.0,
                    0.0,
                    -0.13,
                    0.0,
                    0.0,
                    0.0,
                    0.0
                ],
                "velocities": [],
                "accelerations": [],
                "effort": [],
                "time_from_start": {
                    "secs": 2,
                    "nsecs": 500000000
                }
            },
            {
                "positions": [
                    -0.370156836537996,
                    -0.370156836537996,
                    0.26986343999682016,
                    0.02450448000000005,
                    0.1499831239421146,
                    -0.03950203695877019,
                    -0.65177575586688,
                    0.51040408645488,
                    -0.0003959999999998409,
                    -5.551115123125783e-17,
                    0.0,
                    0.0,
                    -9.999999999998899e-05,
                    0.0,
                    0.0,
                    -0.0003959999999998409,
                    -5.551115123125783e-17,
                    0.0,
                    0.0,
                    -9.999999999998899e-05,
                    0.0,
                    0.0,
                    -8.60000000000305e-05,
                    -1.6000000000016e-05,
                    0.0,
                    -0.000138000000000027,
                    -0.00015399999999998748,
                    -6.799999999995698e-05,
                    0.0,
                    -8.60000000000305e-05,
                    -1.6000000000016e-05,
                    0.0,
                    -0.000138000000000027,
                    -0.00015399999999998748,
                    0.0,
                    0.0,
                    -0.13,
                    0.0,
                    0.0,
                    0.0,
                    0.0
                ],
                "velocities": [],
                "accelerations": [],
                "effort": [],
                "time_from_start": {
                    "secs": 3,
                    "nsecs": 0
                }
            },
            {
                "positions": [
                    -0.370156836537996,
                    -0.370156836537996,
                    0.26986343999682016,
                    0.02450448000000005,
                    0.1499831239421146,
                    -0.03950203695877019,
                    -0.65177575586688,
                    0.51040408645488,
                    -0.0003959999999998409,
                    -5.551115123125783e-17,
                    0.0,
                    0.0,
                    -9.999999999998899e-05,
                    0.0,
                    0.0,
                    -0.0003959999999998409,
                    -5.551115123125783e-17,
                    0.0,
                    0.0,
                    -9.999999999998899e-05,
                    0.0,
                    0.0,
                    -8.60000000000305e-05,
                    -1.6000000000016e-05,
                    0.0,
                    -0.000138000000000027,
                    -0.00015399999999998748,
                    -6.799999999995698e-05,
                    0.0,
                    -8.60000000000305e-05,
                    -1.6000000000016e-05,
                    0.0,
                    -0.000138000000000027,
                    -0.00015399999999998748,
                    0.0,
                    0.0,
                    -0.13,
                    0.0,
                    0.0,
                    0.0,
                    0.0
                ],
                "velocities": [],
                "accelerations": [],
                "effort": [],
                "time_from_start": {
                    "secs": 3,
                    "nsecs": 100000000
                }
            },
            {
                "positions": [
                    -0.370156836537996,
                    -0.370156836537996,
                    0.26986343999682016,
                    0.02450448000000005,
                    0.16056214965885007,
                    0.05105088062083414,
                    -0.5615596868291756,
                    0.7487462491055674,
                    -0.0003959999999998409,
                    -5.551115123125783e-17,
                    0.0,
                    0.0,
                    -9.999999999998899e-05,
                    0.0,
                    0.0,
                    -0.0003959999999998409,
                    -5.551115123125783e-17,
                    0.0,
                    0.0,
                    -9.999999999998899e-05,
                    0.0,
                    0.0,
                    -8.60000000000305e-05,
                    -1.6000000000016e-05,
                    0.0,
                    -0.000138000000000027,
                    -0.00015399999999998748,
                    -6.799999999995698e-05,
                    0.0,
                    -8.60000000000305e-05,
                    -1.6000000000016e-05,
                    0.0,
                    -0.000138000000000027,
                    -0.00015399999999998748,
                    0.0,
                    0.0,
                    -0.13,
                    0.0,
                    0.0,
                    0.0,
                    0.0
                ],
                "velocities": [],
                "accelerations": [],
                "effort": [],
                "time_from_start": {
                    "secs": 3,
                    "nsecs": 350000000
                }
            },
            {
                "positions": [
                    -0.370156836537996,
                    -0.370156836537996,
                    0.26986343999682016,
                    0.02450448000000005,
                    0.16056214965885007,
                    0.05105088062083414,
                    -0.5615596868291756,
                    0.7487462491055674,
                    -0.0003959999999998409,
                    -5.551115123125783e-17,
                    0.0,
                    0.0,
                    -9.999999999998899e-05,
                    0.0,
                    0.0,
                    -0.0003959999999998409,
                    -5.551115123125783e-17,
                    0.0,
                    0.0,
                    -9.999999999998899e-05,
                    0.0,
                    0.0,
                    -8.60000000000305e-05,
                    -1.6000000000016e-05,
                    0.0,
                    -0.000138000000000027,
                    -0.00015399999999998748,
                    -6.799999999995698e-05,
                    0.0,
                    -8.60000000000305e-05,
                    -1.6000000000016e-05,
                    0.0,
                    -0.000138000000000027,
                    -0.00015399999999998748,
                    0.0,
                    0.0,
                    -0.13,
                    0.0,
                    0.0,
                    0.0,
                    0.0
                ],
                "velocities": [],
                "accelerations": [],
                "effort": [],
                "time_from_start": {
                    "secs": 3,
                    "nsecs": 500000000
                }
            },
            {
                "positions": [
                    -0.370156836537996,
                    -0.370156836537996,
                    0.26986343999682016,
                    0.02450448000000005,
                    0.1499831239421146,
                    -0.03950203695877019,
                    -0.65177575586688,
                    0.51040408645488,
                    -0.0003959999999998409,
                    -5.551115123125783e-17,
                    0.0,
                    0.0,
                    -9.999999999998899e-05,
                    0.0,
                    0.0,
                    -0.0003959999999998409,
                    -5.551115123125783e-17,
                    0.0,
                    0.0,
                    -9.999999999998899e-05,
                    0.0,
                    0.0,
                    -8.60000000000305e-05,
                    -1.6000000000016e-05,
                    0.0,
                    -0.000138000000000027,
                    -0.00015399999999998748,
                    -6.799999999995698e-05,
                    0.0,
                    -8.60000000000305e-05,
                    -1.6000000000016e-05,
                    0.0,
                    -0.000138000000000027,
                    -0.00015399999999998748,
                    0.0,
                    0.0,
                    -0.13,
                    0.0,
                    0.0,
                    0.0,
                    0.0
                ],
                "velocities": [],
                "accelerations": [],
                "effort": [],
                "time_from_start": {
                    "secs": 4,
                    "nsecs": 100000000
                }
            },
            {
                "positions": [
                    -0.370156836537996,
                    -0.370156836537996,
                    0.017278799999999928,
                    -0.12095159999999994,
                    0.15266565049530006,
                    -0.04,
                    -0.65,
                    0.51,
                    -0.0003959999999998409,
                    -5.551115123125783e-17,
                    0.0,
                    0.0,
                    -9.999999999998899e-05,
                    0.0,
                    0.0,
                    -0.0003959999999998409,
                    -5.551115123125783e-17,
                    0.0,
                    0.0,
                    -9.999999999998899e-05,
                    0.0,
                    0.0,
                    -8.60000000000305e-05,
                    -1.6000000000016e-05,
                    0.0,
                    -0.000138000000000027,
                    -0.00015399999999998748,
                    -6.799999999995698e-05,
                    0.0,
                    -8.60000000000305e-05,
                    -1.6000000000016e-05,
                    0.0,
                    -0.000138000000000027,
                    -0.00015399999999998748,
                    0.0,
                    0.0,
                    -0.13,
                    0.0,
                    0.0,
                    0.0,
                    0.0
                ],
                "velocities": [],
                "accelerations": [],
                "effort": [],
                "time_from_start": {
                    "secs": 4,
                    "nsecs": 200000000
                }
            },
            {
                "positions": [
                    -0.370156836537996,
                    -0.370156836537996,
                    0.017278799999999928,
                    -0.12095159999999994,
                    0.15266565049530006,
                    -0.04,
                    -0.65,
                    0.51,
                    -0.0003959999999998409,
                    -5.551115123125783e-17,
                    0.0,
                    0.0,
                    -9.999999999998899e-05,
                    0.0,
                    0.0,
                    -0.0003959999999998409,
                    -5.551115123125783e-17,
                    0.0,
                    0.0,
                    -9.999999999998899e-05,
                    0.0,
                    0.0,
                    -8.60000000000305e-05,
                    -1.6000000000016e-05,
                    0.0,
                    -0.000138000000000027,
                    -0.00015399999999998748,
                    -6.799999999995698e-05,
                    0.0,
                    -8.60000000000305e-05,
                    -1.6000000000016e-05,
                    0.0,
                    -0.000138000000000027,
                    -0.00015399999999998748,
                    0.0,
                    0.0,
                    -0.13,
                    0.0,
                    0.0,
                    0.0,
                    0.0
                ],
                "velocities": [],
                "accelerations": [],
                "effort": [],
                "time_from_start": {
                    "secs": 4,
                    "nsecs": 600000000
                }
            },
            {
                "positions": [
                    -0.370156836537996,
                    -0.370156836537996,
                    0.017278799999999928,
                    -0.12095159999999994,
                    0.15266565049530006,
                    0.05088507434366063,
                    -0.555887366760194,
                    0.42542400517361784,
                    -0.0003959999999998409,
                    -5.551115123125783e-17,
                    0.0,
                    0.0,
                    -9.999999999998899e-05,
                    0.0,
                    0.0,
                    -0.0003959999999998409,
                    -5.551115123125783e-17,
                    0.0,
                    0.0,
                    -9.999999999998899e-05,
                    0.0,
                    0.0,
                    -8.60000000000305e-05,
                    -1.6000000000016e-05,
                    0.0,
                    -0.000138000000000027,
                    -0.00015399999999998748,
                    -6.799999999995698e-05,
                    0.0,
                    -8.60000000000305e-05,
                    -1.6000000000016e-05,
                    0.0,
                    -0.000138000000000027,
                    -0.00015399999999998748,
                    0.0,
                    0.0,
                    -0.13,
                    0.0,
                    0.0,
                    0.0,
                    0.0
                ],
                "velocities": [],
                "accelerations": [],
                "effort": [],
                "time_from_start": {
                    "secs": 5,
                    "nsecs": 400000000
                }
            },
            {
                "positions": [
                    -0.370156836537996,
                    -0.370156836537996,
                    0.017278799999999744,
                    -0.4071513599999998,
                    0.1763551479859501,
                    0.14743494323489328,
                    0.017016960206944657,
                    -0.06806784082777843,
                    -0.00039599999999984,
                    -5.551115123125773e-17,
                    4.7890400192844084e-18,
                    4.3365008100835875e-183,
                    -9.999999999998878e-05,
                    2.7970558300682524e-183,
                    9.859460062350435e-182,
                    -0.00039599999999984,
                    -5.551115123125773e-17,
                    -3.1778730574265147e-18,
                    -2.5408351542782057e-182,
                    -9.999999999998878e-05,
                    9.141447402779053e-183,
                    1.1416216914298401e-181,
                    -8.600000000003032e-05,
                    -1.6000000000015974e-05,
                    4.376380971483914e-179,
                    -0.0001380000000000268,
                    -0.00015399999999998715,
                    -6.799999999995682e-05,
                    2.2313514877947272e-181,
                    -8.600000000003032e-05,
                    -1.6000000000015974e-05,
                    6.883787661821409e-183,
                    -0.0001380000000000268,
                    -0.00015399999999998715,
                    4.1861180276155546e-17,
                    2.983783966237332e-181,
                    -0.13,
                    0.0,
                    0.0,
                    0.0,
                    0.0
                ],
                "velocities": [],
                "accelerations": [],
                "effort": [],
                "time_from_start": {
                    "secs": 6,
                    "nsecs": 600000000
                }
            },
            {
                "positions": [
                    -0.370156836537996,
                    -0.370156836537996,
                    0.2243102400000001,
                    0.08639399999999986,
                    0.15266565049530006,
                    0.05,
                    -0.56,
                    0.43,
                    -0.0003959999999998409,
                    -5.551115123125783e-17,
                    0.0,
                    0.0,
                    -9.999999999998899e-05,
                    0.0,
                    0.0,
                    -0.0003959999999998409,
                    -5.551115123125783e-17,
                    0.0,
                    0.0,
                    -9.999999999998899e-05,
                    0.0,
                    0.0,
                    -8.60000000000305e-05,
                    -1.6000000000016e-05,
                    0.0,
                    -0.000138000000000027,
                    -0.00015399999999998748,
                    -6.799999999995698e-05,
                    0.0,
                    -8.60000000000305e-05,
                    -1.6000000000016e-05,
                    0.0,
                    -0.000138000000000027,
                    -0.00015399999999998748,
                    0.0,
                    0.0,
                    -0.13,
                    0.0,
                    0.0,
                    0.0,
                    0.0
                ],
                "velocities": [],
                "accelerations": [],
                "effort": [],
                "time_from_start": {
                    "secs": 7,
                    "nsecs": 200000000
                }
            },
            {
                "positions": [
                    -0.370156836537996,
                    -0.370156836537996,
                    0.2243102400000001,
                    0.08639399999999986,
                    0.15266565049530006,
                    0.05,
                    -0.56,
                    0.43,
                    -0.0003959999999998409,
                    -5.551115123125783e-17,
                    0.0,
                    0.0,
                    -9.999999999998899e-05,
                    0.0,
                    0.0,
                    -0.0003959999999998409,
                    -5.551115123125783e-17,
                    0.0,
                    0.0,
                    -9.999999999998899e-05,
                    0.0,
                    0.0,
                    -8.60000000000305e-05,
                    -1.6000000000016e-05,
                    0.0,
                    -0.000138000000000027,
                    -0.00015399999999998748,
                    -6.799999999995698e-05,
                    0.0,
                    -8.60000000000305e-05,
                    -1.6000000000016e-05,
                    0.0,
                    -0.000138000000000027,
                    -0.00015399999999998748,
                    0.0,
                    0.0,
                    0.0,
                    0.0,
                    0.0,
                    0.0,
                    0.0
                ],
                "velocities": [],
                "accelerations": [],
                "effort": [],
                "time_from_start": {
                    "secs": 7,
                    "nsecs": 700000000
                }
            },
            {
                "positions": [
                    -0.370156836537996,
                    -0.370156836537996,
                    0.2243102400000001,
                    0.08639399999999986,
                    0.15266565049530006,
                    0.05,
                    -0.56,
                    0.43,
                    -0.0003959999999998409,
                    -5.551115123125783e-17,
                    0.0,
                    0.0,
                    -9.999999999998899e-05,
                    0.0,
                    0.0,
                    -0.0003959999999998409,
                    -5.551115123125783e-17,
                    0.0,
                    0.0,
                    -9.999999999998899e-05,
                    0.0,
                    0.0,
                    -8.60000000000305e-05,
                    -1.6000000000016e-05,
                    0.0,
                    -0.000138000000000027,
                    -0.00015399999999998748,
                    -6.799999999995698e-05,
                    0.0,
                    -8.60000000000305e-05,
                    -1.6000000000016e-05,
                    0.0,
                    -0.000138000000000027,
                    -0.00015399999999998748,
                    0.0,
                    0.0,
                    0.0,
                    0.0,
                    0.0,
                    0.0,
                    0.0
                ],
                "velocities": [],
                "accelerations": [],
                "effort": [],
                "time_from_start": {
                    "secs": 7,
                    "nsecs": 800000000
                }
            }
        ]
    },
    "path_tolerance": [
        {
            "name": "ear_l_joint",
            "position": 0.522,
            "velocity": 0.0,
            "acceleration": 0.0
        },
        {
            "name": "ear_r_joint",
            "position": 0.522,
            "velocity": 0.0,
            "acceleration": 0.0
        },
        {
            "name": "eyes_pitch",
            "position": 0.522,
            "velocity": 0.0,
            "acceleration": 0.0
        },
        {
            "name": "eyes_yaw",
            "position": 0.522,
            "velocity": 0.0,
            "acceleration": 0.0
        },
        {
            "name": "head_joint1",
            "position": 0.522,
            "velocity": 0.0,
            "acceleration": 0.0
        },
        {
            "name": "head_joint2",
            "position": 0.522,
            "velocity": 0.0,
            "acceleration": 0.0
        },
        {
            "name": "head_joint3",
            "position": 0.522,
            "velocity": 0.0,
            "acceleration": 0.0
        },
        {
            "name": "head_joint4",
            "position": 0.522,
            "velocity": 0.0,
            "acceleration": 0.0
        },
        {
            "name": "leg1_joint1",
            "position": 0.522,
            "velocity": 0.0,
            "acceleration": 0.0
        },
        {
            "name": "leg1_joint2",
            "position": 0.522,
            "velocity": 0.0,
            "acceleration": 0.0
        },
        {
            "name": "leg1_joint3",
            "position": 0.522,
            "velocity": 0.0,
            "acceleration": 0.0
        },
        {
            "name": "leg1_joint4",
            "position": 0.522,
            "velocity": 0.0,
            "acceleration": 0.0
        },
        {
            "name": "leg1_joint5",
            "position": 0.522,
            "velocity": 0.0,
            "acceleration": 0.0
        },
        {
            "name": "leg1_joint6",
            "position": 0.522,
            "velocity": 0.0,
            "acceleration": 0.0
        },
        {
            "name": "leg1_joint7",
            "position": 0.522,
            "velocity": 0.0,
            "acceleration": 0.0
        },
        {
            "name": "leg2_joint1",
            "position": 0.522,
            "velocity": 0.0,
            "acceleration": 0.0
        },
        {
            "name": "leg2_joint2",
            "position": 0.522,
            "velocity": 0.0,
            "acceleration": 0.0
        },
        {
            "name": "leg2_joint3",
            "position": 0.522,
            "velocity": 0.0,
            "acceleration": 0.0
        },
        {
            "name": "leg2_joint4",
            "position": 0.522,
            "velocity": 0.0,
            "acceleration": 0.0
        },
        {
            "name": "leg2_joint5",
            "position": 0.522,
            "velocity": 0.0,
            "acceleration": 0.0
        },
        {
            "name": "leg2_joint6",
            "position": 0.522,
            "velocity": 0.0,
            "acceleration": 0.0
        },
        {
            "name": "leg2_joint7",
            "position": 0.522,
            "velocity": 0.0,
            "acceleration": 0.0
        },
        {
            "name": "leg3_joint1",
            "position": 0.522,
            "velocity": 0.0,
            "acceleration": 0.0
        },
        {
            "name": "leg3_joint2",
            "position": 0.522,
            "velocity": 0.0,
            "acceleration": 0.0
        },
        {
            "name": "leg3_joint3",
            "position": 0.522,
            "velocity": 0.0,
            "acceleration": 0.0
        },
        {
            "name": "leg3_joint4",
            "position": 0.522,
            "velocity": 0.0,
            "acceleration": 0.0
        },
        {
            "name": "leg3_joint5",
            "position": 0.522,
            "velocity": 0.0,
            "acceleration": 0.0
        },
        {
            "name": "leg3_joint6",
            "position": 0.522,
            "velocity": 0.0,
            "acceleration": 0.0
        },
        {
            "name": "leg3_joint7",
            "position": 0.522,
            "velocity": 0.0,
            "acceleration": 0.0
        },
        {
            "name": "leg4_joint1",
            "position": 0.522,
            "velocity": 0.0,
            "acceleration": 0.0
        },
        {
            "name": "leg4_joint2",
            "position": 0.522,
            "velocity": 0.0,
            "acceleration": 0.0
        },
        {
            "name": "leg4_joint3",
            "position": 0.522,
            "velocity": 0.0,
            "acceleration": 0.0
        },
        {
            "name": "leg4_joint4",
            "position": 0.522,
            "velocity": 0.0,
            "acceleration": 0.0
        },
        {
            "name": "leg4_joint5",
            "position": 0.522,
            "velocity": 0.0,
            "acceleration": 0.0
        },
        {
            "name": "leg4_joint6",
            "position": 0.522,
            "velocity": 0.0,
            "acceleration": 0.0
        },
        {
            "name": "leg4_joint7",
            "position": 0.522,
            "velocity": 0.0,
            "acceleration": 0.0
        },
        {
            "name": "mouth_joint",
            "position": 0.522,
            "velocity": 0.0,
            "acceleration": 0.0
        }
    ],
    "goal_tolerance": [
        {
            "name": "ear_l_joint",
            "position": 0.174,
            "velocity": 0.0,
            "acceleration": 0.0
        },
        {
            "name": "ear_r_joint",
            "position": 0.174,
            "velocity": 0.0,
            "acceleration": 0.0
        },
        {
            "name": "eyes_pitch",
            "position": 0.174,
            "velocity": 0.0,
            "acceleration": 0.0
        },
        {
            "name": "eyes_yaw",
            "position": 0.174,
            "velocity": 0.0,
            "acceleration": 0.0
        },
        {
            "name": "head_joint1",
            "position": 0.174,
            "velocity": 0.0,
            "acceleration": 0.0
        },
        {
            "name": "head_joint2",
            "position": 0.174,
            "velocity": 0.0,
            "acceleration": 0.0
        },
        {
            "name": "head_joint3",
            "position": 0.174,
            "velocity": 0.0,
            "acceleration": 0.0
        },
        {
            "name": "head_joint4",
            "position": 0.174,
            "velocity": 0.0,
            "acceleration": 0.0
        },
        {
            "name": "leg1_joint1",
            "position": 0.174,
            "velocity": 0.0,
            "acceleration": 0.0
        },
        {
            "name": "leg1_joint2",
            "position": 0.174,
            "velocity": 0.0,
            "acceleration": 0.0
        },
        {
            "name": "leg1_joint3",
            "position": 0.174,
            "velocity": 0.0,
            "acceleration": 0.0
        },
        {
            "name": "leg1_joint4",
            "position": 0.174,
            "velocity": 0.0,
            "acceleration": 0.0
        },
        {
            "name": "leg1_joint5",
            "position": 0.174,
            "velocity": 0.0,
            "acceleration": 0.0
        },
        {
            "name": "leg1_joint6",
            "position": 0.174,
            "velocity": 0.0,
            "acceleration": 0.0
        },
        {
            "name": "leg1_joint7",
            "position": 0.174,
            "velocity": 0.0,
            "acceleration": 0.0
        },
        {
            "name": "leg2_joint1",
            "position": 0.174,
            "velocity": 0.0,
            "acceleration": 0.0
        },
        {
            "name": "leg2_joint2",
            "position": 0.174,
            "velocity": 0.0,
            "acceleration": 0.0
        },
        {
            "name": "leg2_joint3",
            "position": 0.174,
            "velocity": 0.0,
            "acceleration": 0.0
        },
        {
            "name": "leg2_joint4",
            "position": 0.174,
            "velocity": 0.0,
            "acceleration": 0.0
        },
        {
            "name": "leg2_joint5",
            "position": 0.174,
            "velocity": 0.0,
            "acceleration": 0.0
        },
        {
            "name": "leg2_joint6",
            "position": 0.174,
            "velocity": 0.0,
            "acceleration": 0.0
        },
        {
            "name": "leg2_joint7",
            "position": 0.174,
            "velocity": 0.0,
            "acceleration": 0.0
        },
        {
            "name": "leg3_joint1",
            "position": 0.174,
            "velocity": 0.0,
            "acceleration": 0.0
        },
        {
            "name": "leg3_joint2",
            "position": 0.174,
            "velocity": 0.0,
            "acceleration": 0.0
        },
        {
            "name": "leg3_joint3",
            "position": 0.174,
            "velocity": 0.0,
            "acceleration": 0.0
        },
        {
            "name": "leg3_joint4",
            "position": 0.174,
            "velocity": 0.0,
            "acceleration": 0.0
        },
        {
            "name": "leg3_joint5",
            "position": 0.174,
            "velocity": 0.0,
            "acceleration": 0.0
        },
        {
            "name": "leg3_joint6",
            "position": 0.174,
            "velocity": 0.0,
            "acceleration": 0.0
        },
        {
            "name": "leg3_joint7",
            "position": 0.174,
            "velocity": 0.0,
            "acceleration": 0.0
        },
        {
            "name": "leg4_joint1",
            "position": 0.174,
            "velocity": 0.0,
            "acceleration": 0.0
        },
        {
            "name": "leg4_joint2",
            "position": 0.174,
            "velocity": 0.0,
            "acceleration": 0.0
        },
        {
            "name": "leg4_joint3",
            "position": 0.174,
            "velocity": 0.0,
            "acceleration": 0.0
        },
        {
            "name": "leg4_joint4",
            "position": 0.174,
            "velocity": 0.0,
            "acceleration": 0.0
        },
        {
            "name": "leg4_joint5",
            "position": 0.174,
            "velocity": 0.0,
            "acceleration": 0.0
        },
        {
            "name": "leg4_joint6",
            "position": 0.174,
            "velocity": 0.0,
            "acceleration": 0.0
        },
        {
            "name": "leg4_joint7",
            "position": 0.174,
            "velocity": 0.0,
            "acceleration": 0.0
        },
        {
            "name": "mouth_joint",
            "position": 0.174,
            "velocity": 0.0,
            "acceleration": 0.0
        }
    ],
    "goal_time_tolerance": {
        "secs": 0,
        "nsecs": 0
    }
}