{
    "trajectory": {
        "header": {
            "seq": 0,
            "stamp": {
                "secs": 1703267997,
                "nsecs": 884751696
            },
            "frame_id": ""
        },
        "joint_names": [
            "ear_l_joint",
            "ear_r_joint",
            "eyes_pitch",
            "eyes_yaw",
            "head_joint1",
            "head_joint2",
            "head_joint3",
            "head_joint4",
            "leg1_joint1",
            "leg1_joint2",
            "leg1_joint3",
            "leg1_joint4",
            "leg1_joint5",
            "leg1_joint6",
            "leg1_joint7",
            "leg2_joint1",
            "leg2_joint2",
            "leg2_joint3",
            "leg2_joint4",
            "leg2_joint5",
            "leg2_joint6",
            "leg2_joint7",
            "leg3_joint1",
            "leg3_joint2",
            "leg3_joint3",
            "leg3_joint4",
            "leg3_joint5",
            "leg3_joint6",
            "leg3_joint7",
            "leg4_joint1",
            "leg4_joint2",
            "leg4_joint3",
            "leg4_joint4",
            "leg4_joint5",
            "leg4_joint6",
            "leg4_joint7",
            "mouth_joint",
            "support/leg1",
            "support/leg2",
            "support/leg3",
            "support/leg4"
        ],
        "points": [
            {
                "positions": [
                    -0.0002617993868900974,
                    -0.00026179938689008253,
                    1.8283179170249938e-37,
                    1.6418476817065264e-37,
                    0.09212582357474997,
                    -0.00028448866639318673,
                    1.4033647044504987e-14,
                    0.006343711676664524,
                    0.00153781744171126,
                    -0.006042011257941477,
                    0.0015832307933509632,
                    -0.0048581843102871005,
                    -0.004463082248056184,
                    -0.0008657250299272929,
                    -0.00033223139904719963,
                    -0.0003960000000052627,
                    -2.7536679225980815e-15,
                    1.2132351340600379e-14,
                    -6.337034077209457e-15,
                    -9.999999999988257e-05,
                    6.927937744121305e-16,
                    -1.361854284822656e-25,
                    -0.03403392041388788,
                    0.1247910415175942,
                    -0.5955936072430632,
                    0.5899212871740801,
                    -0.1086189166617235,
                    -0.11344640137963155,
                    -2.6618061872746896e-25,
                    -0.11911872144861221,
                    0.02836160034490797,
                    -0.47647488579445146,
                    0.4821472058634324,
                    0.028160459875262108,
                    -0.04999999999999969,
                    -3.5593918835182255e-25,
                    -1.9163631229182588e-05,
                    1.0,
                    1.0,
                    1.0,
                    1.0
                ],
                "velocities": [],
                "accelerations": [],
                "effort": [],
                "time_from_start": {
                    "secs": 0,
                    "nsecs": 0
                }
            },
            {
                "positions": [
                    -0.0002617993868900974,
                    -0.00026179938689008253,
                    0.019477919999999913,
                    0.40715135999999974,
                    0.0897238316875406,
                    -0.04286232469215227,
                    0.061716420581454455,
                    -0.1656675520962871,
                    -0.0009521670468973586,
                    -0.00780198732435108,
                    -4.6487405042763436e-07,
                    -0.0008350060770373283,
                    -0.000699999216221284,
                    1.6367702452789465e-06,
                    3.9033573855138963e-10,
                    -0.002073781040250892,
                    -0.0007830357308024944,
                    0.00021053235309347835,
                    -0.0012652567594216336,
                    4.8421308482832e-05,
                    -0.00029300587920649265,
                    -1.361854284822685e-25,
                    -0.03077678720688037,
                    0.11993588605930805,
                    -0.6002481940048278,
                    0.5899999886971408,
                    -0.1102801235416346,
                    -0.11003179056728184,
                    -2.659921245944694e-25,
                    -0.12061419262892774,
                    0.029935934130019857,
                    -0.4800726583928032,
                    0.4795436268503798,
                    0.029707834566821772,
                    -0.05000000213087657,
                    -3.559391883518333e-25,
                    -0.12002454733060774,
                    1.0,
                    1.0,
                    1.0,
                    1.0
                ],
                "velocities": [],
                "accelerations": [],
                "effort": [],
                "time_from_start": {
                    "secs": 0,
                    "nsecs": 500000000
                }
            },
            {
                "positions": [
                    -0.0002617993868900974,
                    -0.00026179938689008253,
                    0.058119599999999896,
                    0.4071513599999998,
                    0.08972383168754054,
                    0.07161556627559629,
                    0.08880393057249447,
                    -0.04084160399324671,
                    -0.0003951670468972158,
                    -0.0078019873243510805,
                    -7.036727334848035e-05,
                    -0.0006260060770369801,
                    -0.0005501852270274421,
                    8.290384601703756e-05,
                    7.806714771071634e-10,
                    -0.002073781040250894,
                    -0.0007830357308024949,
                    0.000404532353093479,
                    -0.0012652567594216336,
                    4.84104622389023e-05,
                    -0.0002930058792064928,
                    -1.3618542848227115e-25,
                    -0.03077678720688037,
                    0.11993588605930798,
                    -0.6002481940048283,
                    0.5899999886971408,
                    -0.11028012354163463,
                    -0.10999958113456369,
                    -2.659921245917515e-25,
                    -0.12061419262892777,
                    0.029935934130019857,
                    -0.47999931678560703,
                    0.4795436268503796,
                    0.029707834566821772,
                    -0.05000000213087657,
                    -3.5593918835184027e-25,
                    -0.12002454733060776,
                    1.0,
                    1.0,
                    1.0,
                    1.0
                ],
                "velocities": [],
                "accelerations": [],
                "effort": [],
                "time_from_start": {
                    "secs": 1,
                    "nsecs": 0
                }
            },
            {
                "positions": [
                    -0.0002617993868900974,
                    -0.00026179938689008253,
                    0.13571711999999994,
                    -0.4847488799999996,
                    0.08987038484543311,
                    -0.07759786746540047,
                    0.12566528437473456,
                    0.030367829488353332,
                    -0.001509167046897278,
                    -0.009361987324351076,
                    -6.374575057482929e-05,
                    -0.0010440060770372335,
                    -0.0012999992162214414,
                    3.856019371455033e-05,
                    7.806714771071634e-10,
                    -0.003744781040251097,
                    -0.0015630357308024998,
                    0.0005985323530934802,
                    -0.0023102567594211537,
                    -1.0348154546328227e-05,
                    -0.0007310058792065431,
                    -1.3618542848227546e-25,
                    -0.030219574413760993,
                    0.11998377211861598,
                    -0.6000393880096566,
                    0.5899999886971408,
                    -0.1101222470832695,
                    -0.10999958113456364,
                    -2.657549384666732e-25,
                    -0.12005638525785503,
                    0.029983868260039667,
                    -0.4799993167856069,
                    0.47978625370075967,
                    0.02986566913364336,
                    -0.05000000213087657,
                    -3.559391883518583e-25,
                    -0.1200000000005564,
                    1.0,
                    0.0,
                    1.0,
                    1.0
                ],
                "velocities": [],
                "accelerations": [],
                "effort": [],
                "time_from_start": {
                    "secs": 1,
                    "nsecs": 500000000
                }
            },
            {
                "positions": [
                    -0.0002617993868900974,
                    -0.00026179938689008253,
                    0.21331463999999978,
                    -0.2519563199999997,
                    0.08987038484543311,
                    -9.652203046486608e-05,
                    1.578230734130022e-06,
                    0.0060728463005134195,
                    0.05084883295310277,
                    -0.13078198732435156,
                    -9.297481008552816e-07,
                    9.939229627331e-07,
                    -0.004449999216221439,
                    0.0906676367702457,
                    7.806714771071637e-10,
                    -0.4376477810402526,
                    -0.1989030357308031,
                    1.049750532353097,
                    -0.692428256759423,
                    0.21095375627943858,
                    -0.045553005879206694,
                    -1.3618542848226573e-25,
                    -0.030219574413760993,
                    0.11998377211861598,
                    -0.6000393880096568,
                    0.5899999886971408,
                    -0.11012224708326948,
                    -0.10999958113456358,
                    1.0100384867094875e-29,
                    -0.12005638525785503,
                    0.029983868260039667,
                    -0.4799993167856065,
                    0.47978625370075967,
                    0.02986566913364336,
                    -0.05000000213087655,
                    -3.559391883518237e-25,
                    -0.12000000000055637,
                    1.0,
                    0.0,
                    1.0,
                    1.0
                ],
                "velocities": [],
                "accelerations": [],
                "effort": [],
                "time_from_start": {
                    "secs": 2,
                    "nsecs": 0
                }
            },
            {
                "positions": [
                    -0.0002617993868900974,
                    -0.00026179938689008253,
                    0.17467295999999974,
                    -0.09707543999999996,
                    0.08943061637320461,
                    -0.04304907492211588,
                    0.06087866254049446,
                    -0.16273539895292707,
                    0.05105171357799304,
                    -0.1304654288881821,
                    -4.648740516047144e-07,
                    0.0056733138381996175,
                    -0.004397147702043117,
                    0.09075875788842286,
                    3.9033573855358093e-10,
                    -0.4443317810402525,
                    -0.21606303573080327,
                    0.9498405323530966,
                    -0.48447325675942304,
                    0.005603756279438169,
                    0.08190499412079374,
                    -1.3618542848226607e-25,
                    0.3196472127931207,
                    0.13995188605930808,
                    -0.5601201940048284,
                    0.18988799434856896,
                    -0.07014812354163466,
                    -0.18003579056728197,
                    -2.6617556126947593e-25,
                    -0.05030619262892722,
                    0.06996793413001996,
                    -0.6501986583928037,
                    0.6199976268503802,
                    0.10997183456682183,
                    0.00999599893456184,
                    -3.559391883518251e-25,
                    -0.12000000000027818,
                    0.0,
                    1.0,
                    1.0,
                    1.0
                ],
                "velocities": [],
                "accelerations": [],
                "effort": [],
                "time_from_start": {
                    "secs": 2,
                    "nsecs": 500000000
                }
            },
            {
                "positions": [
                    -0.0002617993868900974,
                    -0.00026179938689008253,
                    0.2909121594274354,
                    -0.1357171202565993,
                    0.08972382968273536,
                    -9.652426195634599e-05,
                    1.5740925142980087e-06,
                    0.00607284428675028,
                    -0.10789616953676273,
                    -0.06864198948904889,
                    1.1707895317945165,
                    -0.9814630093059027,
                    -0.4001499997497738,
                    0.0623436361143142,
                    3.4564299106399595e-10,
                    -0.44544578944659946,
                    -0.21684303895449492,
                    0.9498405299450138,
                    -0.48029325920764615,
                    0.009957510177815428,
                    0.08161299329744177,
                    -1.3618542848226504e-25,
                    0.31999842183597565,
                    0.13995188588647045,
                    -0.5601201944430061,
                    0.1898879942948182,
                    -0.07014812399792922,
                    -0.179999581155477,
                    -2.661705182460132e-25,
                    -0.0503061934186939,
                    0.06996793372761241,
                    -0.649999316818161,
                    0.6199992521940957,
                    0.10999966827166084,
                    0.0099959982403778,
                    -3.5593918835182236e-25,
                    -0.12000000000055637,
                    0.0,
                    1.0,
                    1.0,
                    1.0
                ],
                "velocities": [],
                "accelerations": [],
                "effort": [],
                "time_from_start": {
                    "secs": 3,
                    "nsecs": 500000000
                }
            },
            {
                "positions": [
                    -0.0002617993868900974,
                    -0.00026179938689008253,
                    0.25195632,
                    -0.019477919999999913,
                    0.09,
                    0.14874341125060445,
                    -0.056965968554546,
                    0.207763094661634,
                    0.32879183295310366,
                    0.051998012675649075,
                    1.4745935351259543,
                    -1.053777006077041,
                    -0.8456499992162245,
                    0.06102963677024544,
                    -0.008168159609664157,
                    -0.44098978104025227,
                    -0.22074303573080326,
                    0.9500333838001056,
                    -0.48002272577384497,
                    0.009954682276479996,
                    0.07956899412079381,
                    -1.3618542848226644e-25,
                    0.31968854018824555,
                    0.13985588605930818,
                    -0.560329194004828,
                    0.18940199434856897,
                    -0.07030612354163455,
                    -0.18003558113456386,
                    -2.6617042228283795e-25,
                    -0.05086419262892704,
                    0.06987193413002002,
                    -0.6501983167856076,
                    0.6199992467042654,
                    0.10999966604162424,
                    0.009847998934561916,
                    -3.5593918835182636e-25,
                    -0.1200000000002782,
                    0.0,
                    1.0,
                    1.0,
                    1.0
                ],
                "velocities": [],
                "accelerations": [],
                "effort": [],
                "time_from_start": {
                    "secs": 4,
                    "nsecs": 0
                }
            },
            {
                "positions": [
                    -0.0002617993868900974,
                    -0.00026179938689008253,
                    0.4071513599999998,
                    0.213314640000041,
                    0.09,
                    0.4051514769907658,
                    0.020666276574413982,
                    0.26724391556979454,
                    1.2851608329531061,
                    -0.15262198732435156,
                    1.7665635351259559,
                    -1.276989006077041,
                    -0.015399999216221497,
                    0.29988563677024627,
                    -0.4156336796096655,
                    -0.4404390375253043,
                    -0.22074303573079623,
                    0.9500334430341522,
                    -0.48002250541187647,
                    0.00980375627943817,
                    0.07942299412079382,
                    -1.361854284823012e-25,
                    0.3202052127931013,
                    0.13606388605930822,
                    -0.5571941940048282,
                    0.18697199434856893,
                    -0.06935812354163462,
                    -0.17663179056728198,
                    -2.66170477757504e-25,
                    -0.04919019262892753,
                    0.06799993413001998,
                    -0.6478996583928041,
                    0.6199992560643915,
                    0.10999967070231491,
                    0.01029199893456192,
                    -3.559391883519348e-25,
                    -0.1200000000002782,
                    0.0,
                    1.0,
                    1.0,
                    1.0
                ],
                "velocities": [],
                "accelerations": [],
                "effort": [],
                "time_from_start": {
                    "secs": 4,
                    "nsecs": 500000000
                }
            },
            {
                "positions": [
                    -0.0002617993868900974,
                    -0.00026179938689008253,
                    0.3685096799999996,
                    -0.09738960000000002,
                    -0.05,
                    0.16349667941773735,
                    0.31276458018913467,
                    0.1277572017499542,
                    1.4038018329531066,
                    0.055898012675648784,
                    1.6678175351259565,
                    -1.067780006077041,
                    0.07610000078377885,
                    0.002045636770245722,
                    -0.39301415960966535,
                    -0.4421037810402526,
                    -0.22074910719240973,
                    0.9498405323530966,
                    -0.48003367507323086,
                    0.009811269531517756,
                    0.07942098236238125,
                    -1.3618542848229978e-25,
                    0.3202044255862422,
                    0.13606365817792446,
                    -0.5571941940048282,
                    0.1869719830457068,
                    -0.06935812354163462,
                    -0.17633579056728207,
                    -2.6616546726904067e-25,
                    -0.04919019262892753,
                    0.06799980239006001,
                    -0.6474816583928039,
                    0.6199988804871243,
                    0.10999950367213504,
                    0.01029199893456192,
                    -3.5593918835193394e-25,
                    -0.12000000000083454,
                    0.0,
                    1.0,
                    1.0,
                    1.0
                ],
                "velocities": [],
                "accelerations": [],
                "effort": [],
                "time_from_start": {
                    "secs": 5,
                    "nsecs": 0
                }
            },
            {
                "positions": [
                    -0.0002617993870581031,
                    -0.00026179938705808817,
                    0.368509684618761,
                    -0.4847488830184534,
                    -0.04995725478423377,
                    0.13614407032066775,
                    0.5887461750636924,
                    0.09338867778499717,
                    1.4589844683801132,
                    0.3210107005621802,
                    1.5595108811446552,
                    -1.1418595349747753,
                    0.09905000984311775,
                    -0.01772535938200899,
                    0.12534985359686107,
                    -0.44182821873333766,
                    -0.22086514567448262,
                    0.9508335648563168,
                    -0.48082551255968115,
                    0.010067447264535085,
                    0.07935734263521171,
                    0.00023637664763535488,
                    0.32060131708399386,
                    0.13557602369429297,
                    -0.5554259504312844,
                    0.18587409560443854,
                    -0.06884427185125215,
                    -0.17572261929605743,
                    0.0001901049548386644,
                    -0.047450005870140435,
                    0.06808589012047168,
                    -0.6465998459095719,
                    0.6187278220694951,
                    0.10994732031161834,
                    0.010354945525480408,
                    0.00029103090429738254,
                    -0.25992490419331055,
                    0.0,
                    1.0,
                    1.0,
                    1.0
                ],
                "velocities": [],
                "accelerations": [],
                "effort": [],
                "time_from_start": {
                    "secs": 5,
                    "nsecs": 500000000
                }
            },
            {
                "positions": [
                    -0.0002617993868900974,
                    -0.00026179938689008253,
                    0.4847488799999996,
                    -0.5237047199999996,
                    -0.05,
                    -0.2837701213453258,
                    0.23429457701921494,
                    -0.138649855275327,
                    1.2595388329531056,
                    0.45525801267565047,
                    1.6140795351259543,
                    -1.631662006077041,
                    -0.23559999921622207,
                    -0.11460836322975505,
                    0.08702232039033582,
                    -0.44098978104025227,
                    -0.22074303573080337,
                    0.9500172264840718,
                    -0.4800114724566079,
                    0.009803860853591691,
                    0.07942299412079379,
                    -1.361854284822947e-25,
                    0.3218792127931207,
                    0.1360638860593081,
                    -0.5563581940048283,
                    0.18697199434856882,
                    -0.06872612354163461,
                    -0.17604266184863468,
                    -2.661754281545361e-25,
                    -0.04695819262892729,
                    0.06799993413001998,
                    -0.6470677122088079,
                    0.6199996166259168,
                    0.10999983004820763,
                    0.010883998934561852,
                    -3.559391883519166e-25,
                    -0.26,
                    0.0,
                    1.0,
                    1.0,
                    1.0
                ],
                "velocities": [],
                "accelerations": [],
                "effort": [],
                "time_from_start": {
                    "secs": 6,
                    "nsecs": 0
                }
            },
            {
                "positions": [
                    -0.0002617993870581031,
                    -0.0002617993870580882,
                    0.3681955884972291,
                    -0.2909121214813569,
                    -0.023900907628473352,
                    -0.317982642886278,
                    0.11893042545714254,
                    -0.17030275152720092,
                    0.8539931501284963,
                    0.2574223279627098,
                    1.6371654144895271,
                    -1.9334453728529764,
                    -0.4419738115886947,
                    -0.07183812649282058,
                    0.1302906028908769,
                    -0.4419799801313938,
                    -0.22124754136134742,
                    0.9501148684256377,
                    -0.4803298650693154,
                    0.00987759899972851,
                    0.07914647554723322,
                    0.00023637664763535412,
                    0.3207027580677795,
                    0.1354576195349922,
                    -0.5554075681346652,
                    0.1850433182152146,
                    -0.06883087041630545,
                    -0.1755837796868774,
                    0.00019010495483866386,
                    -0.04742694797484298,
                    0.06791065644757653,
                    -0.6462721790324272,
                    0.6187700278578848,
                    0.10996952773932835,
                    0.010355237451453453,
                    0.00029103090429738156,
                    -0.26,
                    0.0,
                    1.0,
                    1.0,
                    1.0
                ],
                "velocities": [],
                "accelerations": [],
                "effort": [],
                "time_from_start": {
                    "secs": 6,
                    "nsecs": 300000000
                }
            },
            {
                "positions": [
                    -0.0002617993868900974,
                    -0.00026179938689008253,
                    0.13571711942743547,
                    -0.3295538402565991,
                    -0.0837102359305982,
                    -0.24884783057360554,
                    -0.13934551338716625,
                    -0.05445517417260987,
                    0.621773830463239,
                    0.13727801051095187,
                    1.4592675317945183,
                    -1.906288009305904,
                    -0.5936499997497746,
                    -0.12891636388568634,
                    0.12503568034564327,
                    -0.44155357889319935,
                    -0.2210060779089894,
                    0.9498405299450138,
                    -0.48003367802742525,
                    0.009811264120432468,
                    0.07927598659488394,
                    -1.361854284823081e-25,
                    0.3213204180857086,
                    0.13601577177294089,
                    -0.5565673888860108,
                    0.18672898858963663,
                    -0.06888424799585834,
                    -0.17618779058819492,
                    -2.6616546794736285e-25,
                    -0.047516386837387695,
                    0.06795186745522483,
                    -0.6472726584253568,
                    0.6199988775373085,
                    0.10999950197622967,
                    0.010735996480755789,
                    -3.559391883519601e-25,
                    -0.12013973906123933,
                    0.0,
                    1.0,
                    1.0,
                    1.0
                ],
                "velocities": [],
                "accelerations": [],
                "effort": [],
                "time_from_start": {
                    "secs": 6,
                    "nsecs": 600000000
                }
            },
            {
                "positions": [
                    -0.0002617993868900972,
                    -0.0002617993868900824,
                    0.17435880461876127,
                    -0.40715136301845367,
                    -0.10589773063100727,
                    -0.2442661481153902,
                    -0.24761560249471057,
                    0.1078400039915572,
                    0.29819646838010977,
                    0.01993070056217933,
                    1.0037008811446535,
                    -2.0217495349747763,
                    -0.9572499901568858,
                    -0.11963335938200947,
                    0.12503656295259422,
                    -0.4418282187333379,
                    -0.22112514567448247,
                    0.9507366977116153,
                    -0.48052932470632925,
                    0.010001120224918886,
                    0.0792113426352118,
                    -1.3618542848228449e-25,
                    0.3212205590162144,
                    0.13600802369429288,
                    -0.5565853822966181,
                    0.18684609560443843,
                    -0.06889740143494656,
                    -0.17602129105751702,
                    -2.6597689134976554e-25,
                    -0.04753905789529739,
                    0.06794189012047165,
                    -0.6470215730188059,
                    0.6199566784760928,
                    0.1099772982417558,
                    0.010735708074026924,
                    -3.5593918835192067e-25,
                    -0.12008214320659676,
                    0.0,
                    1.0,
                    1.0,
                    1.0
                ],
                "velocities": [],
                "accelerations": [],
                "effort": [],
                "time_from_start": {
                    "secs": 7,
                    "nsecs": 0
                }
            },
            {
                "positions": [
                    -0.00026179938689009706,
                    -0.0002617993868900824,
                    1.1580977852915993e-09,
                    -0.4863196774167107,
                    -0.07385340040439332,
                    -0.09867832657612166,
                    -0.1208827046617401,
                    0.137973220681464,
                    0.4984105637504678,
                    0.19770176791927016,
                    1.3515330400879835,
                    -1.980673327919424,
                    -0.8848996190042691,
                    -0.10800726070295893,
                    0.12472452879185454,
                    -0.4410367721393259,
                    -0.22280256938242077,
                    0.9500161420110912,
                    -0.4802799983521045,
                    0.00984067775011259,
                    0.07941146582995126,
                    -1.3618541669258749e-25,
                    0.32186078071897045,
                    0.1360624974913889,
                    -0.5563614799474007,
                    0.18696967272517712,
                    -0.06935346037756103,
                    -0.1760414174347315,
                    -2.661384915169605e-25,
                    -0.04696238757138433,
                    0.06799808281006102,
                    -0.6470660016478437,
                    0.6195166545495717,
                    0.10999556336253623,
                    0.010149669739336467,
                    -3.5593917383624663e-25,
                    -0.12002454733239257,
                    0.0,
                    1.0,
                    1.0,
                    1.0
                ],
                "velocities": [],
                "accelerations": [],
                "effort": [],
                "time_from_start": {
                    "secs": 7,
                    "nsecs": 500000000
                }
            },
            {
                "positions": [
                    -0.00026179938689009706,
                    -0.0002617993868900824,
                    0.05749127983796999,
                    -0.44893464010536077,
                    -0.029133549223339605,
                    -0.04183646017747806,
                    -0.08745339129523506,
                    0.10799485618030541,
                    0.8335392396642691,
                    0.23687200361785837,
                    1.5328103051513056,
                    -1.795645446283863,
                    -0.9834758933747204,
                    0.05358095421019888,
                    0.04449037780362378,
                    -0.44104317834362566,
                    -0.2233366188629444,
                    0.9504035472664848,
                    -0.4813204129393285,
                    0.009816710120413534,
                    0.07840835091286096,
                    -1.3618542840819296e-25,
                    0.31855294255794553,
                    0.1355870104000143,
                    -0.556361897946888,
                    0.18697198536261903,
                    -0.06967198337826638,
                    -0.17618527956892327,
                    -2.660074185355097e-25,
                    -0.05083945355123262,
                    0.06761840382052277,
                    -0.6472678072011036,
                    0.6190290868758056,
                    0.10998100078957794,
                    0.009702829023696615,
                    -3.55939188260766e-25,
                    -0.1200245473326228,
                    0.0,
                    1.0,
                    1.0,
                    1.0
                ],
                "velocities": [],
                "accelerations": [],
                "effort": [],
                "time_from_start": {
                    "secs": 7,
                    "nsecs": 900000000
                }
            },
            {
                "positions": [
                    -0.0002617993868900971,
                    -0.00026179938689008253,
                    0.05749128439532387,
                    -0.4501912826159024,
                    -0.11581828926120549,
                    -0.16456332731418719,
                    0.039733472530567394,
                    0.2598728258681614,
                    0.8791449423479866,
                    0.23816041273589628,
                    1.2080837225111296,
                    -1.2648275906474202,
                    -0.9761669548424564,
                    -0.011313083648159354,
                    0.04398241296260266,
                    -0.44131805594659146,
                    -0.22422821735927978,
                    0.9511523693718948,
                    -0.48240195278583103,
                    0.010004809638998087,
                    0.07805230628425994,
                    -1.3618542848233956e-25,
                    0.3173280527522865,
                    0.13548108790319782,
                    -0.5563795213348652,
                    0.1871811302265382,
                    -0.07000163876036579,
                    -0.17616576376911505,
                    -2.658171804348592e-25,
                    -0.052558097232868486,
                    0.0674152359711857,
                    -0.6472249710753218,
                    0.6185027685120621,
                    0.10963645335157667,
                    0.009847697648676705,
                    -3.559391883520516e-25,
                    -0.12002454734306336,
                    0.0,
                    1.0,
                    1.0,
                    1.0
                ],
                "velocities": [],
                "accelerations": [],
                "effort": [],
                "time_from_start": {
                    "secs": 8,
                    "nsecs": 300000000
                }
            },
            {
                "positions": [
                    -0.00026179938689009706,
                    -0.0002617993868900824,
                    8.227485677837442e-07,
                    0.48033731866648227,
                    -0.1436203519058954,
                    -0.17941692659667932,
                    0.021012074780358006,
                    0.24568489218280165,
                    0.7625864908858152,
                    0.25901890991471477,
                    0.930045123081846,
                    -1.4671124588478055,
                    -0.9229828180871398,
                    -0.0588207691686053,
                    0.01291524143787694,
                    -0.44204435789122926,
                    -0.22365025174996658,
                    0.9517106069857619,
                    -0.4835536828860169,
                    0.010089715557974836,
                    0.07803885039779951,
                    1.0727073730517798e-23,
                    0.3173819044156344,
                    0.13547762179058181,
                    -0.5563948831763988,
                    0.18719873621925912,
                    -0.06999968050695453,
                    -0.17604844529093944,
                    8.471273674740742e-24,
                    -0.05205037864802836,
                    0.06740357542877273,
                    -0.647074841583219,
                    0.6184500185113955,
                    0.10876176744741015,
                    0.009847223291974126,
                    1.3019088202415211e-23,
                    -0.12002454735286805,
                    0.0,
                    1.0,
                    1.0,
                    1.0
                ],
                "velocities": [],
                "accelerations": [],
                "effort": [],
                "time_from_start": {
                    "secs": 8,
                    "nsecs": 700000000
                }
            },
            {
                "positions": [
                    -0.00026179938689009706,
                    -0.0002617993868900824,
                    0.13508879999999707,
                    0.2497572000000366,
                    -0.11874430733035028,
                    -0.04791631997900208,
                    -0.012235815363459475,
                    0.1778151280124329,
                    0.3393228157922135,
                    0.21034946335111834,
                    0.9398006263470443,
                    -1.6342544093015843,
                    -0.8933260011702514,
                    -0.10747809632290253,
                    -0.03519987666531017,
                    -0.44154033085007405,
                    -0.22281968721869533,
                    0.9500183374463096,
                    -0.481118457480296,
                    0.00980006493499226,
                    0.07869402660584594,
                    -1.3128984353377264e-25,
                    0.31909020967907803,
                    0.1355360147003659,
                    -0.5563675740838494,
                    0.18697210218154295,
                    -0.06951594044079194,
                    -0.17618794689996087,
                    -2.6217565277454675e-25,
                    -0.05030556366412954,
                    0.06756800879865787,
                    -0.6470639320083544,
                    0.6187830582632668,
                    0.10918166191755606,
                    0.009996001468977457,
                    -3.499116618222418e-25,
                    -0.12002454733217033,
                    0.0,
                    1.0,
                    1.0,
                    1.0
                ],
                "velocities": [],
                "accelerations": [],
                "effort": [],
                "time_from_start": {
                    "secs": 9,
                    "nsecs": 100000000
                }
            },
            {
                "positions": [
                    -0.00026179938689009706,
                    -0.0002617993868900824,
                    0.13508879993521483,
                    0.20860224848681178,
                    -0.15098023456544174,
                    -0.039747512928214775,
                    0.03055375281763197,
                    0.011792186108719252,
                    0.02842682114340618,
                    0.05958722310020428,
                    0.8776885711617866,
                    -1.2499192021961438,
                    -0.8712756945480729,
                    -0.06907104835043658,
                    -0.006527739764713793,
                    -0.4415400062596455,
                    -0.2248606467122352,
                    0.9503986591282376,
                    -0.4829673502313462,
                    0.009870176531159387,
                    0.0788372382069588,
                    -1.3609280480574572e-25,
                    0.31416301544481473,
                    0.14109283803587416,
                    -0.5631284490121033,
                    0.1895944272794434,
                    -0.07230619197480631,
                    -0.18010839632134953,
                    -2.6577226579459327e-25,
                    -0.04975854901447846,
                    0.067615092014222,
                    -0.6468589533441484,
                    0.6173525851289471,
                    0.10933403327513477,
                    0.01014119989169547,
                    -3.558251485235078e-25,
                    -0.1200245473322199,
                    0.0,
                    1.0,
                    1.0,
                    1.0
                ],
                "velocities": [],
                "accelerations": [],
                "effort": [],
                "time_from_start": {
                    "secs": 9,
                    "nsecs": 500000000
                }
            },
            {
                "positions": [
                    -0.00026179938689009706,
                    -0.0002617993868900824,
                    0.17435871195725455,
                    -0.13634467277036508,
                    -0.24862941405432779,
                    -0.19453430963910434,
                    0.05912429818419577,
                    -0.10111729241319371,
                    0.216236517585567,
                    0.03995951914399282,
                    0.6350917531220398,
                    -1.2619346495173605,
                    -0.41538774212390617,
                    0.00170088134840249,
                    -0.04147957074080107,
                    -0.4415592127759179,
                    -0.22188761921110908,
                    0.9498373834191535,
                    -0.48057750928893206,
                    0.009822032296012898,
                    0.07911689193344805,
                    -1.3618223375248382e-25,
                    0.3205330325970456,
                    0.13618984649688737,
                    -0.5569994824108959,
                    0.18705581884473177,
                    -0.06930899896984731,
                    -0.17632583541986632,
                    -2.6614560564606534e-25,
                    -0.04761223632709797,
                    0.06789241024812373,
                    -0.6470531472673977,
                    0.6194365630722185,
                    0.1096396501799682,
                    0.010710474952673408,
                    -3.5593525494686798e-25,
                    -0.12002454733042936,
                    0.0,
                    1.0,
                    1.0,
                    1.0
                ],
                "velocities": [],
                "accelerations": [],
                "effort": [],
                "time_from_start": {
                    "secs": 9,
                    "nsecs": 900000000
                }
            },
            {
                "positions": [
                    -0.00026179938689009706,
                    -0.0002617993868900824,
                    0.09708720088941841,
                    -0.21455932709605904,
                    -0.17984900323736344,
                    -0.18831340045096587,
                    0.04452746171883531,
                    -0.13964989592318214,
                    0.08365340918140968,
                    0.02935086735405202,
                    0.3806954366176345,
                    -1.0320519593645,
                    0.3153830485517366,
                    -0.015051646844481893,
                    -0.042623530579645234,
                    -0.4417642438370414,
                    -0.2227352568631095,
                    0.9505157027684654,
                    -0.48057904574591476,
                    0.009820799755884473,
                    0.07872572131026222,
                    -1.3618508183002116e-25,
                    0.3206250196096569,
                    0.13581769227808863,
                    -0.5506735894976064,
                    0.18675538656121854,
                    -0.0692275245666529,
                    -0.17607213733481997,
                    -2.65985094242342e-25,
                    -0.04707921762397371,
                    0.06794157307779122,
                    -0.6470237206688724,
                    0.6197022157324479,
                    0.10977967541228734,
                    0.010851849088982105,
                    -3.5593876154783073e-25,
                    -0.12013973893925646,
                    0.0,
                    1.0,
                    1.0,
                    1.0
                ],
                "velocities": [],
                "accelerations": [],
                "effort": [],
                "time_from_start": {
                    "secs": 10,
                    "nsecs": 400000000
                }
            },
            {
                "positions": [
                    -0.00026179938689009706,
                    -0.0002617993868900824,
                    0.3295538445955596,
                    0.09707544247449067,
                    -0.06622761360218554,
                    -0.1251194217430788,
                    0.006504430615514921,
                    -0.08589172004490793,
                    0.022481608523068606,
                    -0.10798957733866495,
                    0.1846328715715689,
                    -0.3900864399196101,
                    0.16790000985026982,
                    -0.00020528838483049408,
                    -0.04241292328055816,
                    -0.4421185851425244,
                    -0.22164540228054533,
                    0.9512643241253028,
                    -0.4816366337958408,
                    0.010147493186966108,
                    0.07891920106367958,
                    -1.3618542627333348e-25,
                    0.3206621186293424,
                    0.1359119861863339,
                    -0.5490615372312398,
                    0.1869641547681586,
                    -0.06905551630466215,
                    -0.1760185623467141,
                    -2.6577183507279614e-25,
                    -0.047005437783824926,
                    0.06793166116367506,
                    -0.6468088155246567,
                    0.6196685091296766,
                    0.10976854426576312,
                    0.01086519425394557,
                    -3.559391856322264e-25,
                    -0.12008214321754815,
                    0.0,
                    1.0,
                    1.0,
                    1.0
                ],
                "velocities": [],
                "accelerations": [],
                "effort": [],
                "time_from_start": {
                    "secs": 10,
                    "nsecs": 900000000
                }
            },
            {
                "positions": [
                    -0.00026179938689009717,
                    -0.0002617993868900824,
                    0.09644712461876125,
                    0.13571711698154598,
                    0.08830055483090243,
                    0.06704648523409834,
                    0.08720836120897056,
                    -0.04421308044268315,
                    0.050331468380109205,
                    -0.13060929943782118,
                    -5.511885534919985e-05,
                    -0.0007195349747713781,
                    -0.004449990156882425,
                    0.08987664061799115,
                    -0.00031414640313953267,
                    -0.4368152187333384,
                    -0.19850514567448246,
                    1.0423059298052046,
                    -0.6883371601568871,
                    0.20919736545062315,
                    -0.04561865736478858,
                    -1.3618542848226782e-25,
                    -0.031993440983785836,
                    0.11983202369429276,
                    -0.6006843822966184,
                    0.5890110956044392,
                    -0.11060940143494655,
                    -0.11015861929605741,
                    -1.919735974701047e-27,
                    -0.1217530578952978,
                    0.02982989012047174,
                    -0.48023584590957163,
                    0.47901505321425253,
                    0.02936946457314268,
                    -0.050536291925973184,
                    -3.559391883518322e-25,
                    -0.12008214320687491,
                    1.0,
                    0.0,
                    1.0,
                    1.0
                ],
                "velocities": [],
                "accelerations": [],
                "effort": [],
                "time_from_start": {
                    "secs": 11,
                    "nsecs": 500000000
                }
            },
            {
                "positions": [
                    -0.0002617993868900974,
                    -0.00026179938689008253,
                    1.8283179170249938e-37,
                    1.6418476817065264e-37,
                    0.09212582357474997,
                    -0.00028448866639318673,
                    1.4033647044504987e-14,
                    0.006343711676664524,
                    0.00153781744171126,
                    -0.006042011257941477,
                    0.0015832307933509632,
                    -0.0048581843102871005,
                    -0.004463082248056184,
                    -0.0008657250299272929,
                    -0.00033223139904719963,
                    -0.0003960000000052627,
                    -2.7536679225980815e-15,
                    1.2132351340600379e-14,
                    -6.337034077209457e-15,
                    -9.999999999988257e-05,
                    6.927937744121305e-16,
                    -1.361854284822656e-25,
                    -0.03403392041388788,
                    0.1247910415175942,
                    -0.5955936072430632,
                    0.5899212871740801,
                    -0.1086189166617235,
                    -0.11344640137963155,
                    -2.6618061872746896e-25,
                    -0.11911872144861221,
                    0.02836160034490797,
                    -0.47647488579445146,
                    0.4821472058634324,
                    0.028160459875262108,
                    -0.04999999999999969,
                    -3.5593918835182255e-25,
                    -1.9163631229182588e-05,
                    1.0,
                    1.0,
                    1.0,
                    1.0
                ],
                "velocities": [],
                "accelerations": [],
                "effort": [],
                "time_from_start": {
                    "secs": 12,
                    "nsecs": 600000000
                }
            }
        ]
    },
    "path_tolerance": [
        {
            "name": "ear_l_joint",
            "position": 0.522,
            "velocity": 0.0,
            "acceleration": 0.0
        },
        {
            "name": "ear_r_joint",
            "position": 0.522,
            "velocity": 0.0,
            "acceleration": 0.0
        },
        {
            "name": "eyes_pitch",
            "position": 0.522,
            "velocity": 0.0,
            "acceleration": 0.0
        },
        {
            "name": "eyes_yaw",
            "position": 0.522,
            "velocity": 0.0,
            "acceleration": 0.0
        },
        {
            "name": "head_joint1",
            "position": 0.522,
            "velocity": 0.0,
            "acceleration": 0.0
        },
        {
            "name": "head_joint2",
            "position": 0.522,
            "velocity": 0.0,
            "acceleration": 0.0
        },
        {
            "name": "head_joint3",
            "position": 0.522,
            "velocity": 0.0,
            "acceleration": 0.0
        },
        {
            "name": "head_joint4",
            "position": 0.522,
            "velocity": 0.0,
            "acceleration": 0.0
        },
        {
            "name": "leg1_joint1",
            "position": 0.522,
            "velocity": 0.0,
            "acceleration": 0.0
        },
        {
            "name": "leg1_joint2",
            "position": 0.522,
            "velocity": 0.0,
            "acceleration": 0.0
        },
        {
            "name": "leg1_joint3",
            "position": 0.522,
            "velocity": 0.0,
            "acceleration": 0.0
        },
        {
            "name": "leg1_joint4",
            "position": 0.522,
            "velocity": 0.0,
            "acceleration": 0.0
        },
        {
            "name": "leg1_joint5",
            "position": 0.522,
            "velocity": 0.0,
            "acceleration": 0.0
        },
        {
            "name": "leg1_joint6",
            "position": 0.522,
            "velocity": 0.0,
            "acceleration": 0.0
        },
        {
            "name": "leg1_joint7",
            "position": 0.522,
            "velocity": 0.0,
            "acceleration": 0.0
        },
        {
            "name": "leg2_joint1",
            "position": 0.522,
            "velocity": 0.0,
            "acceleration": 0.0
        },
        {
            "name": "leg2_joint2",
            "position": 0.522,
            "velocity": 0.0,
            "acceleration": 0.0
        },
        {
            "name": "leg2_joint3",
            "position": 0.522,
            "velocity": 0.0,
            "acceleration": 0.0
        },
        {
            "name": "leg2_joint4",
            "position": 0.522,
            "velocity": 0.0,
            "acceleration": 0.0
        },
        {
            "name": "leg2_joint5",
            "position": 0.522,
            "velocity": 0.0,
            "acceleration": 0.0
        },
        {
            "name": "leg2_joint6",
            "position": 0.522,
            "velocity": 0.0,
            "acceleration": 0.0
        },
        {
            "name": "leg2_joint7",
            "position": 0.522,
            "velocity": 0.0,
            "acceleration": 0.0
        },
        {
            "name": "leg3_joint1",
            "position": 0.522,
            "velocity": 0.0,
            "acceleration": 0.0
        },
        {
            "name": "leg3_joint2",
            "position": 0.522,
            "velocity": 0.0,
            "acceleration": 0.0
        },
        {
            "name": "leg3_joint3",
            "position": 0.522,
            "velocity": 0.0,
            "acceleration": 0.0
        },
        {
            "name": "leg3_joint4",
            "position": 0.522,
            "velocity": 0.0,
            "acceleration": 0.0
        },
        {
            "name": "leg3_joint5",
            "position": 0.522,
            "velocity": 0.0,
            "acceleration": 0.0
        },
        {
            "name": "leg3_joint6",
            "position": 0.522,
            "velocity": 0.0,
            "acceleration": 0.0
        },
        {
            "name": "leg3_joint7",
            "position": 0.522,
            "velocity": 0.0,
            "acceleration": 0.0
        },
        {
            "name": "leg4_joint1",
            "position": 0.522,
            "velocity": 0.0,
            "acceleration": 0.0
        },
        {
            "name": "leg4_joint2",
            "position": 0.522,
            "velocity": 0.0,
            "acceleration": 0.0
        },
        {
            "name": "leg4_joint3",
            "position": 0.522,
            "velocity": 0.0,
            "acceleration": 0.0
        },
        {
            "name": "leg4_joint4",
            "position": 0.522,
            "velocity": 0.0,
            "acceleration": 0.0
        },
        {
            "name": "leg4_joint5",
            "position": 0.522,
            "velocity": 0.0,
            "acceleration": 0.0
        },
        {
            "name": "leg4_joint6",
            "position": 0.522,
            "velocity": 0.0,
            "acceleration": 0.0
        },
        {
            "name": "leg4_joint7",
            "position": 0.522,
            "velocity": 0.0,
            "acceleration": 0.0
        },
        {
            "name": "mouth_joint",
            "position": 0.522,
            "velocity": 0.0,
            "acceleration": 0.0
        }
    ],
    "goal_tolerance": [
        {
            "name": "ear_l_joint",
            "position": 0.174,
            "velocity": 0.0,
            "acceleration": 0.0
        },
        {
            "name": "ear_r_joint",
            "position": 0.174,
            "velocity": 0.0,
            "acceleration": 0.0
        },
        {
            "name": "eyes_pitch",
            "position": 0.174,
            "velocity": 0.0,
            "acceleration": 0.0
        },
        {
            "name": "eyes_yaw",
            "position": 0.174,
            "velocity": 0.0,
            "acceleration": 0.0
        },
        {
            "name": "head_joint1",
            "position": 0.174,
            "velocity": 0.0,
            "acceleration": 0.0
        },
        {
            "name": "head_joint2",
            "position": 0.174,
            "velocity": 0.0,
            "acceleration": 0.0
        },
        {
            "name": "head_joint3",
            "position": 0.174,
            "velocity": 0.0,
            "acceleration": 0.0
        },
        {
            "name": "head_joint4",
            "position": 0.174,
            "velocity": 0.0,
            "acceleration": 0.0
        },
        {
            "name": "leg1_joint1",
            "position": 0.174,
            "velocity": 0.0,
            "acceleration": 0.0
        },
        {
            "name": "leg1_joint2",
            "position": 0.174,
            "velocity": 0.0,
            "acceleration": 0.0
        },
        {
            "name": "leg1_joint3",
            "position": 0.174,
            "velocity": 0.0,
            "acceleration": 0.0
        },
        {
            "name": "leg1_joint4",
            "position": 0.174,
            "velocity": 0.0,
            "acceleration": 0.0
        },
        {
            "name": "leg1_joint5",
            "position": 0.174,
            "velocity": 0.0,
            "acceleration": 0.0
        },
        {
            "name": "leg1_joint6",
            "position": 0.174,
            "velocity": 0.0,
            "acceleration": 0.0
        },
        {
            "name": "leg1_joint7",
            "position": 0.174,
            "velocity": 0.0,
            "acceleration": 0.0
        },
        {
            "name": "leg2_joint1",
            "position": 0.174,
            "velocity": 0.0,
            "acceleration": 0.0
        },
        {
            "name": "leg2_joint2",
            "position": 0.174,
            "velocity": 0.0,
            "acceleration": 0.0
        },
        {
            "name": "leg2_joint3",
            "position": 0.174,
            "velocity": 0.0,
            "acceleration": 0.0
        },
        {
            "name": "leg2_joint4",
            "position": 0.174,
            "velocity": 0.0,
            "acceleration": 0.0
        },
        {
            "name": "leg2_joint5",
            "position": 0.174,
            "velocity": 0.0,
            "acceleration": 0.0
        },
        {
            "name": "leg2_joint6",
            "position": 0.174,
            "velocity": 0.0,
            "acceleration": 0.0
        },
        {
            "name": "leg2_joint7",
            "position": 0.174,
            "velocity": 0.0,
            "acceleration": 0.0
        },
        {
            "name": "leg3_joint1",
            "position": 0.174,
            "velocity": 0.0,
            "acceleration": 0.0
        },
        {
            "name": "leg3_joint2",
            "position": 0.174,
            "velocity": 0.0,
            "acceleration": 0.0
        },
        {
            "name": "leg3_joint3",
            "position": 0.174,
            "velocity": 0.0,
            "acceleration": 0.0
        },
        {
            "name": "leg3_joint4",
            "position": 0.174,
            "velocity": 0.0,
            "acceleration": 0.0
        },
        {
            "name": "leg3_joint5",
            "position": 0.174,
            "velocity": 0.0,
            "acceleration": 0.0
        },
        {
            "name": "leg3_joint6",
            "position": 0.174,
            "velocity": 0.0,
            "acceleration": 0.0
        },
        {
            "name": "leg3_joint7",
            "position": 0.174,
            "velocity": 0.0,
            "acceleration": 0.0
        },
        {
            "name": "leg4_joint1",
            "position": 0.174,
            "velocity": 0.0,
            "acceleration": 0.0
        },
        {
            "name": "leg4_joint2",
            "position": 0.174,
            "velocity": 0.0,
            "acceleration": 0.0
        },
        {
            "name": "leg4_joint3",
            "position": 0.174,
            "velocity": 0.0,
            "acceleration": 0.0
        },
        {
            "name": "leg4_joint4",
            "position": 0.174,
            "velocity": 0.0,
            "acceleration": 0.0
        },
        {
            "name": "leg4_joint5",
            "position": 0.174,
            "velocity": 0.0,
            "acceleration": 0.0
        },
        {
            "name": "leg4_joint6",
            "position": 0.174,
            "velocity": 0.0,
            "acceleration": 0.0
        },
        {
            "name": "leg4_joint7",
            "position": 0.174,
            "velocity": 0.0,
            "acceleration": 0.0
        },
        {
            "name": "mouth_joint",
            "position": 0.174,
            "velocity": 0.0,
            "acceleration": 0.0
        }
    ],
    "goal_time_tolerance": {
        "secs": 0,
        "nsecs": 0
    }
}